2023-05-31 13:55:22.624 +07:00 [Information] Application started. Press Ctrl+C to shut down.
2023-05-31 13:55:22.670 +07:00 [Information] Hosting environment: "Production"
2023-05-31 13:55:22.672 +07:00 [Information] Content root path: "E:\01.Srouce\13.TTL\02.Srouce-api\srouce-api-ttl\TTL_API.WebApi"
2023-05-31 13:55:45.086 +07:00 [Warning] No type was specified for the decimal column '"DeliveryFee"' on entity type '"Bill"'. This will cause values to be silently truncated if they do not fit in the default precision and scale. Explicitly specify the SQL server column type that can accommodate all the values using 'HasColumnType()'.
2023-05-31 13:55:45.088 +07:00 [Warning] No type was specified for the decimal column '"TotalAmount"' on entity type '"Bill"'. This will cause values to be silently truncated if they do not fit in the default precision and scale. Explicitly specify the SQL server column type that can accommodate all the values using 'HasColumnType()'.
2023-05-31 13:55:45.090 +07:00 [Warning] No type was specified for the decimal column '"TotalDiscountAmount"' on entity type '"Bill"'. This will cause values to be silently truncated if they do not fit in the default precision and scale. Explicitly specify the SQL server column type that can accommodate all the values using 'HasColumnType()'.
2023-05-31 13:55:45.092 +07:00 [Warning] No type was specified for the decimal column '"Price"' on entity type '"BillDetail"'. This will cause values to be silently truncated if they do not fit in the default precision and scale. Explicitly specify the SQL server column type that can accommodate all the values using 'HasColumnType()'.
2023-05-31 13:55:45.093 +07:00 [Warning] No type was specified for the decimal column '"PriceDiscount"' on entity type '"BillDetail"'. This will cause values to be silently truncated if they do not fit in the default precision and scale. Explicitly specify the SQL server column type that can accommodate all the values using 'HasColumnType()'.
2023-05-31 13:55:45.095 +07:00 [Warning] No type was specified for the decimal column '"TotalPrice"' on entity type '"BillDetail"'. This will cause values to be silently truncated if they do not fit in the default precision and scale. Explicitly specify the SQL server column type that can accommodate all the values using 'HasColumnType()'.
2023-05-31 13:55:45.096 +07:00 [Warning] No type was specified for the decimal column '"Price"' on entity type '"BillDetailHistory"'. This will cause values to be silently truncated if they do not fit in the default precision and scale. Explicitly specify the SQL server column type that can accommodate all the values using 'HasColumnType()'.
2023-05-31 13:55:45.098 +07:00 [Warning] No type was specified for the decimal column '"PriceDiscount"' on entity type '"BillDetailHistory"'. This will cause values to be silently truncated if they do not fit in the default precision and scale. Explicitly specify the SQL server column type that can accommodate all the values using 'HasColumnType()'.
2023-05-31 13:55:45.099 +07:00 [Warning] No type was specified for the decimal column '"TotalPrice"' on entity type '"BillDetailHistory"'. This will cause values to be silently truncated if they do not fit in the default precision and scale. Explicitly specify the SQL server column type that can accommodate all the values using 'HasColumnType()'.
2023-05-31 13:55:45.100 +07:00 [Warning] No type was specified for the decimal column '"CostPrice"' on entity type '"Combo"'. This will cause values to be silently truncated if they do not fit in the default precision and scale. Explicitly specify the SQL server column type that can accommodate all the values using 'HasColumnType()'.
2023-05-31 13:55:45.102 +07:00 [Warning] No type was specified for the decimal column '"Price"' on entity type '"Combo"'. This will cause values to be silently truncated if they do not fit in the default precision and scale. Explicitly specify the SQL server column type that can accommodate all the values using 'HasColumnType()'.
2023-05-31 13:55:45.103 +07:00 [Warning] No type was specified for the decimal column '"DifferenceValue"' on entity type '"InventoryDetail"'. This will cause values to be silently truncated if they do not fit in the default precision and scale. Explicitly specify the SQL server column type that can accommodate all the values using 'HasColumnType()'.
2023-05-31 13:55:45.104 +07:00 [Warning] No type was specified for the decimal column '"DeliveryFee"' on entity type '"Order"'. This will cause values to be silently truncated if they do not fit in the default precision and scale. Explicitly specify the SQL server column type that can accommodate all the values using 'HasColumnType()'.
2023-05-31 13:55:45.106 +07:00 [Warning] No type was specified for the decimal column '"ExtraMoney"' on entity type '"Order"'. This will cause values to be silently truncated if they do not fit in the default precision and scale. Explicitly specify the SQL server column type that can accommodate all the values using 'HasColumnType()'.
2023-05-31 13:55:45.107 +07:00 [Warning] No type was specified for the decimal column '"InvoiceValue"' on entity type '"Order"'. This will cause values to be silently truncated if they do not fit in the default precision and scale. Explicitly specify the SQL server column type that can accommodate all the values using 'HasColumnType()'.
2023-05-31 13:55:45.108 +07:00 [Warning] No type was specified for the decimal column '"TotalAmount"' on entity type '"Order"'. This will cause values to be silently truncated if they do not fit in the default precision and scale. Explicitly specify the SQL server column type that can accommodate all the values using 'HasColumnType()'.
2023-05-31 13:55:45.109 +07:00 [Warning] No type was specified for the decimal column '"TotalCustomerToPay"' on entity type '"Order"'. This will cause values to be silently truncated if they do not fit in the default precision and scale. Explicitly specify the SQL server column type that can accommodate all the values using 'HasColumnType()'.
2023-05-31 13:55:45.111 +07:00 [Warning] No type was specified for the decimal column '"TotalDiscountAmount"' on entity type '"Order"'. This will cause values to be silently truncated if they do not fit in the default precision and scale. Explicitly specify the SQL server column type that can accommodate all the values using 'HasColumnType()'.
2023-05-31 13:55:45.113 +07:00 [Warning] No type was specified for the decimal column '"OriginalPrice"' on entity type '"OrderDetail"'. This will cause values to be silently truncated if they do not fit in the default precision and scale. Explicitly specify the SQL server column type that can accommodate all the values using 'HasColumnType()'.
2023-05-31 13:55:45.114 +07:00 [Warning] No type was specified for the decimal column '"Price"' on entity type '"OrderDetail"'. This will cause values to be silently truncated if they do not fit in the default precision and scale. Explicitly specify the SQL server column type that can accommodate all the values using 'HasColumnType()'.
2023-05-31 13:55:45.115 +07:00 [Warning] No type was specified for the decimal column '"PriceDiscount"' on entity type '"OrderDetail"'. This will cause values to be silently truncated if they do not fit in the default precision and scale. Explicitly specify the SQL server column type that can accommodate all the values using 'HasColumnType()'.
2023-05-31 13:55:45.116 +07:00 [Warning] No type was specified for the decimal column '"TotalPrice"' on entity type '"OrderDetail"'. This will cause values to be silently truncated if they do not fit in the default precision and scale. Explicitly specify the SQL server column type that can accommodate all the values using 'HasColumnType()'.
2023-05-31 13:55:45.118 +07:00 [Warning] No type was specified for the decimal column '"CostPrice"' on entity type '"PriceListDetail"'. This will cause values to be silently truncated if they do not fit in the default precision and scale. Explicitly specify the SQL server column type that can accommodate all the values using 'HasColumnType()'.
2023-05-31 13:55:45.119 +07:00 [Warning] No type was specified for the decimal column '"Price"' on entity type '"PriceListDetail"'. This will cause values to be silently truncated if they do not fit in the default precision and scale. Explicitly specify the SQL server column type that can accommodate all the values using 'HasColumnType()'.
2023-05-31 13:55:45.120 +07:00 [Warning] No type was specified for the decimal column '"PriceNew"' on entity type '"PriceListDetail"'. This will cause values to be silently truncated if they do not fit in the default precision and scale. Explicitly specify the SQL server column type that can accommodate all the values using 'HasColumnType()'.
2023-05-31 13:55:45.122 +07:00 [Warning] No type was specified for the decimal column '"CostPrice"' on entity type '"Product"'. This will cause values to be silently truncated if they do not fit in the default precision and scale. Explicitly specify the SQL server column type that can accommodate all the values using 'HasColumnType()'.
2023-05-31 13:55:45.123 +07:00 [Warning] No type was specified for the decimal column '"Price"' on entity type '"Product"'. This will cause values to be silently truncated if they do not fit in the default precision and scale. Explicitly specify the SQL server column type that can accommodate all the values using 'HasColumnType()'.
2023-05-31 14:26:38.161 +07:00 [Information] Application started. Press Ctrl+C to shut down.
2023-05-31 14:26:38.197 +07:00 [Information] Hosting environment: "Production"
2023-05-31 14:26:38.200 +07:00 [Information] Content root path: "E:\01.Srouce\13.TTL\02.Srouce-api\srouce-api-ttl\TTL_API.WebApi"
2023-05-31 14:26:52.381 +07:00 [Warning] No type was specified for the decimal column '"DeliveryFee"' on entity type '"Bill"'. This will cause values to be silently truncated if they do not fit in the default precision and scale. Explicitly specify the SQL server column type that can accommodate all the values using 'HasColumnType()'.
2023-05-31 14:26:52.384 +07:00 [Warning] No type was specified for the decimal column '"TotalAmount"' on entity type '"Bill"'. This will cause values to be silently truncated if they do not fit in the default precision and scale. Explicitly specify the SQL server column type that can accommodate all the values using 'HasColumnType()'.
2023-05-31 14:26:52.386 +07:00 [Warning] No type was specified for the decimal column '"TotalDiscountAmount"' on entity type '"Bill"'. This will cause values to be silently truncated if they do not fit in the default precision and scale. Explicitly specify the SQL server column type that can accommodate all the values using 'HasColumnType()'.
2023-05-31 14:26:52.387 +07:00 [Warning] No type was specified for the decimal column '"Price"' on entity type '"BillDetail"'. This will cause values to be silently truncated if they do not fit in the default precision and scale. Explicitly specify the SQL server column type that can accommodate all the values using 'HasColumnType()'.
2023-05-31 14:26:52.389 +07:00 [Warning] No type was specified for the decimal column '"PriceDiscount"' on entity type '"BillDetail"'. This will cause values to be silently truncated if they do not fit in the default precision and scale. Explicitly specify the SQL server column type that can accommodate all the values using 'HasColumnType()'.
2023-05-31 14:26:52.390 +07:00 [Warning] No type was specified for the decimal column '"TotalPrice"' on entity type '"BillDetail"'. This will cause values to be silently truncated if they do not fit in the default precision and scale. Explicitly specify the SQL server column type that can accommodate all the values using 'HasColumnType()'.
2023-05-31 14:26:52.391 +07:00 [Warning] No type was specified for the decimal column '"Price"' on entity type '"BillDetailHistory"'. This will cause values to be silently truncated if they do not fit in the default precision and scale. Explicitly specify the SQL server column type that can accommodate all the values using 'HasColumnType()'.
2023-05-31 14:26:52.393 +07:00 [Warning] No type was specified for the decimal column '"PriceDiscount"' on entity type '"BillDetailHistory"'. This will cause values to be silently truncated if they do not fit in the default precision and scale. Explicitly specify the SQL server column type that can accommodate all the values using 'HasColumnType()'.
2023-05-31 14:26:52.395 +07:00 [Warning] No type was specified for the decimal column '"TotalPrice"' on entity type '"BillDetailHistory"'. This will cause values to be silently truncated if they do not fit in the default precision and scale. Explicitly specify the SQL server column type that can accommodate all the values using 'HasColumnType()'.
2023-05-31 14:26:52.396 +07:00 [Warning] No type was specified for the decimal column '"CostPrice"' on entity type '"Combo"'. This will cause values to be silently truncated if they do not fit in the default precision and scale. Explicitly specify the SQL server column type that can accommodate all the values using 'HasColumnType()'.
2023-05-31 14:26:52.398 +07:00 [Warning] No type was specified for the decimal column '"Price"' on entity type '"Combo"'. This will cause values to be silently truncated if they do not fit in the default precision and scale. Explicitly specify the SQL server column type that can accommodate all the values using 'HasColumnType()'.
2023-05-31 14:26:52.399 +07:00 [Warning] No type was specified for the decimal column '"DifferenceValue"' on entity type '"InventoryDetail"'. This will cause values to be silently truncated if they do not fit in the default precision and scale. Explicitly specify the SQL server column type that can accommodate all the values using 'HasColumnType()'.
2023-05-31 14:26:52.401 +07:00 [Warning] No type was specified for the decimal column '"DeliveryFee"' on entity type '"Order"'. This will cause values to be silently truncated if they do not fit in the default precision and scale. Explicitly specify the SQL server column type that can accommodate all the values using 'HasColumnType()'.
2023-05-31 14:26:52.402 +07:00 [Warning] No type was specified for the decimal column '"ExtraMoney"' on entity type '"Order"'. This will cause values to be silently truncated if they do not fit in the default precision and scale. Explicitly specify the SQL server column type that can accommodate all the values using 'HasColumnType()'.
2023-05-31 14:26:52.404 +07:00 [Warning] No type was specified for the decimal column '"InvoiceValue"' on entity type '"Order"'. This will cause values to be silently truncated if they do not fit in the default precision and scale. Explicitly specify the SQL server column type that can accommodate all the values using 'HasColumnType()'.
2023-05-31 14:26:52.405 +07:00 [Warning] No type was specified for the decimal column '"TotalAmount"' on entity type '"Order"'. This will cause values to be silently truncated if they do not fit in the default precision and scale. Explicitly specify the SQL server column type that can accommodate all the values using 'HasColumnType()'.
2023-05-31 14:26:52.407 +07:00 [Warning] No type was specified for the decimal column '"TotalCustomerToPay"' on entity type '"Order"'. This will cause values to be silently truncated if they do not fit in the default precision and scale. Explicitly specify the SQL server column type that can accommodate all the values using 'HasColumnType()'.
2023-05-31 14:26:52.408 +07:00 [Warning] No type was specified for the decimal column '"TotalDiscountAmount"' on entity type '"Order"'. This will cause values to be silently truncated if they do not fit in the default precision and scale. Explicitly specify the SQL server column type that can accommodate all the values using 'HasColumnType()'.
2023-05-31 14:26:52.410 +07:00 [Warning] No type was specified for the decimal column '"OriginalPrice"' on entity type '"OrderDetail"'. This will cause values to be silently truncated if they do not fit in the default precision and scale. Explicitly specify the SQL server column type that can accommodate all the values using 'HasColumnType()'.
2023-05-31 14:26:52.411 +07:00 [Warning] No type was specified for the decimal column '"Price"' on entity type '"OrderDetail"'. This will cause values to be silently truncated if they do not fit in the default precision and scale. Explicitly specify the SQL server column type that can accommodate all the values using 'HasColumnType()'.
2023-05-31 14:26:52.413 +07:00 [Warning] No type was specified for the decimal column '"PriceDiscount"' on entity type '"OrderDetail"'. This will cause values to be silently truncated if they do not fit in the default precision and scale. Explicitly specify the SQL server column type that can accommodate all the values using 'HasColumnType()'.
2023-05-31 14:26:52.414 +07:00 [Warning] No type was specified for the decimal column '"TotalPrice"' on entity type '"OrderDetail"'. This will cause values to be silently truncated if they do not fit in the default precision and scale. Explicitly specify the SQL server column type that can accommodate all the values using 'HasColumnType()'.
2023-05-31 14:26:52.416 +07:00 [Warning] No type was specified for the decimal column '"CostPrice"' on entity type '"PriceListDetail"'. This will cause values to be silently truncated if they do not fit in the default precision and scale. Explicitly specify the SQL server column type that can accommodate all the values using 'HasColumnType()'.
2023-05-31 14:26:52.418 +07:00 [Warning] No type was specified for the decimal column '"Price"' on entity type '"PriceListDetail"'. This will cause values to be silently truncated if they do not fit in the default precision and scale. Explicitly specify the SQL server column type that can accommodate all the values using 'HasColumnType()'.
2023-05-31 14:26:52.419 +07:00 [Warning] No type was specified for the decimal column '"PriceNew"' on entity type '"PriceListDetail"'. This will cause values to be silently truncated if they do not fit in the default precision and scale. Explicitly specify the SQL server column type that can accommodate all the values using 'HasColumnType()'.
2023-05-31 14:26:52.420 +07:00 [Warning] No type was specified for the decimal column '"CostPrice"' on entity type '"Product"'. This will cause values to be silently truncated if they do not fit in the default precision and scale. Explicitly specify the SQL server column type that can accommodate all the values using 'HasColumnType()'.
2023-05-31 14:26:52.422 +07:00 [Warning] No type was specified for the decimal column '"Price"' on entity type '"Product"'. This will cause values to be silently truncated if they do not fit in the default precision and scale. Explicitly specify the SQL server column type that can accommodate all the values using 'HasColumnType()'.
2023-05-31 14:28:03.101 +07:00 [Error] An exception occurred while iterating over the results of a query for context type '"TTL_API.DbContext.Models.TTL_APIContext"'."
""System.Data.SqlTypes.SqlNullValueException: Data is Null. This method or property cannot be called on Null values.
   at Microsoft.Data.SqlClient.SqlBuffer.ThrowIfNull()
   at Microsoft.Data.SqlClient.SqlBuffer.get_Int32()
   at Microsoft.Data.SqlClient.SqlDataReader.GetInt32(Int32 i)
   at lambda_method(Closure , QueryContext , DbDataReader , ResultContext , Int32[] , ResultCoordinator )
   at Microsoft.EntityFrameworkCore.Query.Internal.QueryingEnumerable`1.Enumerator.MoveNext()"
System.Data.SqlTypes.SqlNullValueException: Data is Null. This method or property cannot be called on Null values.
   at Microsoft.Data.SqlClient.SqlBuffer.ThrowIfNull()
   at Microsoft.Data.SqlClient.SqlBuffer.get_Int32()
   at Microsoft.Data.SqlClient.SqlDataReader.GetInt32(Int32 i)
   at lambda_method(Closure , QueryContext , DbDataReader , ResultContext , Int32[] , ResultCoordinator )
   at Microsoft.EntityFrameworkCore.Query.Internal.QueryingEnumerable`1.Enumerator.MoveNext()
2023-05-31 14:28:03.241 +07:00 [Error] Error at /api/vi-VN/Order/GetAll, msg: Data is Null. This method or property cannot be called on Null values.
System.Data.SqlTypes.SqlNullValueException: Data is Null. This method or property cannot be called on Null values.
   at Microsoft.Data.SqlClient.SqlBuffer.ThrowIfNull()
   at Microsoft.Data.SqlClient.SqlBuffer.get_Int32()
   at Microsoft.Data.SqlClient.SqlDataReader.GetInt32(Int32 i)
   at lambda_method(Closure , QueryContext , DbDataReader , ResultContext , Int32[] , ResultCoordinator )
   at Microsoft.EntityFrameworkCore.Query.Internal.QueryingEnumerable`1.Enumerator.MoveNext()
   at System.Collections.Generic.List`1..ctor(IEnumerable`1 collection)
   at System.Linq.Enumerable.ToList[TSource](IEnumerable`1 source)
   at TTL_API.Services.Implements.OrderService.GetAllAsync(OrderFitter fitter, Int32 limit, Int32 page) in E:\01.Srouce\13.TTL\02.Srouce-api\srouce-api-ttl\TTL_API.Services\Implements\PO\OrderService.cs:line 88
   at TTL_API.WebApi.Controllers.WM.OrderController.GetAll(OrderFitter fitter, Int32 limit, Int32 page) in E:\01.Srouce\13.TTL\02.Srouce-api\srouce-api-ttl\TTL_API.WebApi\Controllers\PO\OrderController.cs:line 73
2023-05-31 14:28:03.244 +07:00 [Warning] SlackWebHooks setting is empty, please check config
2023-05-31 14:28:53.347 +07:00 [Error] An exception occurred while iterating over the results of a query for context type '"TTL_API.DbContext.Models.TTL_APIContext"'."
""System.Data.SqlTypes.SqlNullValueException: Data is Null. This method or property cannot be called on Null values.
   at Microsoft.Data.SqlClient.SqlBuffer.ThrowIfNull()
   at Microsoft.Data.SqlClient.SqlBuffer.get_Int32()
   at Microsoft.Data.SqlClient.SqlDataReader.GetInt32(Int32 i)
   at lambda_method(Closure , QueryContext , DbDataReader , ResultContext , Int32[] , ResultCoordinator )
   at Microsoft.EntityFrameworkCore.Query.Internal.QueryingEnumerable`1.Enumerator.MoveNext()"
System.Data.SqlTypes.SqlNullValueException: Data is Null. This method or property cannot be called on Null values.
   at Microsoft.Data.SqlClient.SqlBuffer.ThrowIfNull()
   at Microsoft.Data.SqlClient.SqlBuffer.get_Int32()
   at Microsoft.Data.SqlClient.SqlDataReader.GetInt32(Int32 i)
   at lambda_method(Closure , QueryContext , DbDataReader , ResultContext , Int32[] , ResultCoordinator )
   at Microsoft.EntityFrameworkCore.Query.Internal.QueryingEnumerable`1.Enumerator.MoveNext()
2023-05-31 14:28:59.474 +07:00 [Error] Error at /api/vi-VN/Order/GetAll, msg: Data is Null. This method or property cannot be called on Null values.
System.Data.SqlTypes.SqlNullValueException: Data is Null. This method or property cannot be called on Null values.
   at Microsoft.Data.SqlClient.SqlBuffer.ThrowIfNull()
   at Microsoft.Data.SqlClient.SqlBuffer.get_Int32()
   at Microsoft.Data.SqlClient.SqlDataReader.GetInt32(Int32 i)
   at lambda_method(Closure , QueryContext , DbDataReader , ResultContext , Int32[] , ResultCoordinator )
   at Microsoft.EntityFrameworkCore.Query.Internal.QueryingEnumerable`1.Enumerator.MoveNext()
   at System.Collections.Generic.List`1..ctor(IEnumerable`1 collection)
   at System.Linq.Enumerable.ToList[TSource](IEnumerable`1 source)
   at TTL_API.Services.Implements.OrderService.GetAllAsync(OrderFitter fitter, Int32 limit, Int32 page) in E:\01.Srouce\13.TTL\02.Srouce-api\srouce-api-ttl\TTL_API.Services\Implements\PO\OrderService.cs:line 88
   at TTL_API.WebApi.Controllers.WM.OrderController.GetAll(OrderFitter fitter, Int32 limit, Int32 page) in E:\01.Srouce\13.TTL\02.Srouce-api\srouce-api-ttl\TTL_API.WebApi\Controllers\PO\OrderController.cs:line 73
2023-05-31 14:28:59.477 +07:00 [Warning] SlackWebHooks setting is empty, please check config
2023-05-31 14:45:12.662 +07:00 [Information] Application started. Press Ctrl+C to shut down.
2023-05-31 14:45:12.696 +07:00 [Information] Hosting environment: "Production"
2023-05-31 14:45:12.698 +07:00 [Information] Content root path: "E:\01.Srouce\13.TTL\02.Srouce-api\srouce-api-ttl\TTL_API.WebApi"
2023-05-31 14:58:41.777 +07:00 [Warning] No type was specified for the decimal column '"DeliveryFee"' on entity type '"Bill"'. This will cause values to be silently truncated if they do not fit in the default precision and scale. Explicitly specify the SQL server column type that can accommodate all the values using 'HasColumnType()'.
2023-05-31 14:58:41.781 +07:00 [Warning] No type was specified for the decimal column '"TotalAmount"' on entity type '"Bill"'. This will cause values to be silently truncated if they do not fit in the default precision and scale. Explicitly specify the SQL server column type that can accommodate all the values using 'HasColumnType()'.
2023-05-31 14:58:41.782 +07:00 [Warning] No type was specified for the decimal column '"TotalDiscountAmount"' on entity type '"Bill"'. This will cause values to be silently truncated if they do not fit in the default precision and scale. Explicitly specify the SQL server column type that can accommodate all the values using 'HasColumnType()'.
2023-05-31 14:58:41.783 +07:00 [Warning] No type was specified for the decimal column '"Price"' on entity type '"BillDetail"'. This will cause values to be silently truncated if they do not fit in the default precision and scale. Explicitly specify the SQL server column type that can accommodate all the values using 'HasColumnType()'.
2023-05-31 14:58:41.785 +07:00 [Warning] No type was specified for the decimal column '"PriceDiscount"' on entity type '"BillDetail"'. This will cause values to be silently truncated if they do not fit in the default precision and scale. Explicitly specify the SQL server column type that can accommodate all the values using 'HasColumnType()'.
2023-05-31 14:58:41.786 +07:00 [Warning] No type was specified for the decimal column '"TotalPrice"' on entity type '"BillDetail"'. This will cause values to be silently truncated if they do not fit in the default precision and scale. Explicitly specify the SQL server column type that can accommodate all the values using 'HasColumnType()'.
2023-05-31 14:58:41.787 +07:00 [Warning] No type was specified for the decimal column '"Price"' on entity type '"BillDetailHistory"'. This will cause values to be silently truncated if they do not fit in the default precision and scale. Explicitly specify the SQL server column type that can accommodate all the values using 'HasColumnType()'.
2023-05-31 14:58:41.788 +07:00 [Warning] No type was specified for the decimal column '"PriceDiscount"' on entity type '"BillDetailHistory"'. This will cause values to be silently truncated if they do not fit in the default precision and scale. Explicitly specify the SQL server column type that can accommodate all the values using 'HasColumnType()'.
2023-05-31 14:58:41.790 +07:00 [Warning] No type was specified for the decimal column '"TotalPrice"' on entity type '"BillDetailHistory"'. This will cause values to be silently truncated if they do not fit in the default precision and scale. Explicitly specify the SQL server column type that can accommodate all the values using 'HasColumnType()'.
2023-05-31 14:58:41.791 +07:00 [Warning] No type was specified for the decimal column '"CostPrice"' on entity type '"Combo"'. This will cause values to be silently truncated if they do not fit in the default precision and scale. Explicitly specify the SQL server column type that can accommodate all the values using 'HasColumnType()'.
2023-05-31 14:58:41.793 +07:00 [Warning] No type was specified for the decimal column '"Price"' on entity type '"Combo"'. This will cause values to be silently truncated if they do not fit in the default precision and scale. Explicitly specify the SQL server column type that can accommodate all the values using 'HasColumnType()'.
2023-05-31 14:58:41.794 +07:00 [Warning] No type was specified for the decimal column '"DifferenceValue"' on entity type '"InventoryDetail"'. This will cause values to be silently truncated if they do not fit in the default precision and scale. Explicitly specify the SQL server column type that can accommodate all the values using 'HasColumnType()'.
2023-05-31 14:58:41.795 +07:00 [Warning] No type was specified for the decimal column '"DeliveryFee"' on entity type '"Order"'. This will cause values to be silently truncated if they do not fit in the default precision and scale. Explicitly specify the SQL server column type that can accommodate all the values using 'HasColumnType()'.
2023-05-31 14:58:41.797 +07:00 [Warning] No type was specified for the decimal column '"ExtraMoney"' on entity type '"Order"'. This will cause values to be silently truncated if they do not fit in the default precision and scale. Explicitly specify the SQL server column type that can accommodate all the values using 'HasColumnType()'.
2023-05-31 14:58:41.798 +07:00 [Warning] No type was specified for the decimal column '"InvoiceValue"' on entity type '"Order"'. This will cause values to be silently truncated if they do not fit in the default precision and scale. Explicitly specify the SQL server column type that can accommodate all the values using 'HasColumnType()'.
2023-05-31 14:58:41.799 +07:00 [Warning] No type was specified for the decimal column '"TotalAmount"' on entity type '"Order"'. This will cause values to be silently truncated if they do not fit in the default precision and scale. Explicitly specify the SQL server column type that can accommodate all the values using 'HasColumnType()'.
2023-05-31 14:58:41.801 +07:00 [Warning] No type was specified for the decimal column '"TotalCustomerToPay"' on entity type '"Order"'. This will cause values to be silently truncated if they do not fit in the default precision and scale. Explicitly specify the SQL server column type that can accommodate all the values using 'HasColumnType()'.
2023-05-31 14:58:41.802 +07:00 [Warning] No type was specified for the decimal column '"TotalDiscountAmount"' on entity type '"Order"'. This will cause values to be silently truncated if they do not fit in the default precision and scale. Explicitly specify the SQL server column type that can accommodate all the values using 'HasColumnType()'.
2023-05-31 14:58:41.803 +07:00 [Warning] No type was specified for the decimal column '"OriginalPrice"' on entity type '"OrderDetail"'. This will cause values to be silently truncated if they do not fit in the default precision and scale. Explicitly specify the SQL server column type that can accommodate all the values using 'HasColumnType()'.
2023-05-31 14:58:41.805 +07:00 [Warning] No type was specified for the decimal column '"Price"' on entity type '"OrderDetail"'. This will cause values to be silently truncated if they do not fit in the default precision and scale. Explicitly specify the SQL server column type that can accommodate all the values using 'HasColumnType()'.
2023-05-31 14:58:41.806 +07:00 [Warning] No type was specified for the decimal column '"PriceDiscount"' on entity type '"OrderDetail"'. This will cause values to be silently truncated if they do not fit in the default precision and scale. Explicitly specify the SQL server column type that can accommodate all the values using 'HasColumnType()'.
2023-05-31 14:58:41.807 +07:00 [Warning] No type was specified for the decimal column '"TotalPrice"' on entity type '"OrderDetail"'. This will cause values to be silently truncated if they do not fit in the default precision and scale. Explicitly specify the SQL server column type that can accommodate all the values using 'HasColumnType()'.
2023-05-31 14:58:41.809 +07:00 [Warning] No type was specified for the decimal column '"CostPrice"' on entity type '"PriceListDetail"'. This will cause values to be silently truncated if they do not fit in the default precision and scale. Explicitly specify the SQL server column type that can accommodate all the values using 'HasColumnType()'.
2023-05-31 14:58:41.810 +07:00 [Warning] No type was specified for the decimal column '"Price"' on entity type '"PriceListDetail"'. This will cause values to be silently truncated if they do not fit in the default precision and scale. Explicitly specify the SQL server column type that can accommodate all the values using 'HasColumnType()'.
2023-05-31 14:58:41.812 +07:00 [Warning] No type was specified for the decimal column '"PriceNew"' on entity type '"PriceListDetail"'. This will cause values to be silently truncated if they do not fit in the default precision and scale. Explicitly specify the SQL server column type that can accommodate all the values using 'HasColumnType()'.
2023-05-31 14:58:41.813 +07:00 [Warning] No type was specified for the decimal column '"CostPrice"' on entity type '"Product"'. This will cause values to be silently truncated if they do not fit in the default precision and scale. Explicitly specify the SQL server column type that can accommodate all the values using 'HasColumnType()'.
2023-05-31 14:58:41.815 +07:00 [Warning] No type was specified for the decimal column '"Price"' on entity type '"Product"'. This will cause values to be silently truncated if they do not fit in the default precision and scale. Explicitly specify the SQL server column type that can accommodate all the values using 'HasColumnType()'.
2023-05-31 15:41:05.604 +07:00 [Information] Application started. Press Ctrl+C to shut down.
2023-05-31 15:41:05.652 +07:00 [Information] Hosting environment: "Production"
2023-05-31 15:41:05.655 +07:00 [Information] Content root path: "E:\01.Srouce\13.TTL\02.Srouce-api\srouce-api-ttl\TTL_API.WebApi"
2023-05-31 15:41:24.527 +07:00 [Warning] No type was specified for the decimal column '"DeliveryFee"' on entity type '"Bill"'. This will cause values to be silently truncated if they do not fit in the default precision and scale. Explicitly specify the SQL server column type that can accommodate all the values using 'HasColumnType()'.
2023-05-31 15:41:24.530 +07:00 [Warning] No type was specified for the decimal column '"TotalAmount"' on entity type '"Bill"'. This will cause values to be silently truncated if they do not fit in the default precision and scale. Explicitly specify the SQL server column type that can accommodate all the values using 'HasColumnType()'.
2023-05-31 15:41:24.532 +07:00 [Warning] No type was specified for the decimal column '"TotalDiscountAmount"' on entity type '"Bill"'. This will cause values to be silently truncated if they do not fit in the default precision and scale. Explicitly specify the SQL server column type that can accommodate all the values using 'HasColumnType()'.
2023-05-31 15:41:24.534 +07:00 [Warning] No type was specified for the decimal column '"Price"' on entity type '"BillDetail"'. This will cause values to be silently truncated if they do not fit in the default precision and scale. Explicitly specify the SQL server column type that can accommodate all the values using 'HasColumnType()'.
2023-05-31 15:41:24.536 +07:00 [Warning] No type was specified for the decimal column '"PriceDiscount"' on entity type '"BillDetail"'. This will cause values to be silently truncated if they do not fit in the default precision and scale. Explicitly specify the SQL server column type that can accommodate all the values using 'HasColumnType()'.
2023-05-31 15:41:24.538 +07:00 [Warning] No type was specified for the decimal column '"TotalPrice"' on entity type '"BillDetail"'. This will cause values to be silently truncated if they do not fit in the default precision and scale. Explicitly specify the SQL server column type that can accommodate all the values using 'HasColumnType()'.
2023-05-31 15:41:24.540 +07:00 [Warning] No type was specified for the decimal column '"Price"' on entity type '"BillDetailHistory"'. This will cause values to be silently truncated if they do not fit in the default precision and scale. Explicitly specify the SQL server column type that can accommodate all the values using 'HasColumnType()'.
2023-05-31 15:41:24.542 +07:00 [Warning] No type was specified for the decimal column '"PriceDiscount"' on entity type '"BillDetailHistory"'. This will cause values to be silently truncated if they do not fit in the default precision and scale. Explicitly specify the SQL server column type that can accommodate all the values using 'HasColumnType()'.
2023-05-31 15:41:24.544 +07:00 [Warning] No type was specified for the decimal column '"TotalPrice"' on entity type '"BillDetailHistory"'. This will cause values to be silently truncated if they do not fit in the default precision and scale. Explicitly specify the SQL server column type that can accommodate all the values using 'HasColumnType()'.
2023-05-31 15:41:24.546 +07:00 [Warning] No type was specified for the decimal column '"CostPrice"' on entity type '"Combo"'. This will cause values to be silently truncated if they do not fit in the default precision and scale. Explicitly specify the SQL server column type that can accommodate all the values using 'HasColumnType()'.
2023-05-31 15:41:24.547 +07:00 [Warning] No type was specified for the decimal column '"Price"' on entity type '"Combo"'. This will cause values to be silently truncated if they do not fit in the default precision and scale. Explicitly specify the SQL server column type that can accommodate all the values using 'HasColumnType()'.
2023-05-31 15:41:24.549 +07:00 [Warning] No type was specified for the decimal column '"DifferenceValue"' on entity type '"InventoryDetail"'. This will cause values to be silently truncated if they do not fit in the default precision and scale. Explicitly specify the SQL server column type that can accommodate all the values using 'HasColumnType()'.
2023-05-31 15:41:24.551 +07:00 [Warning] No type was specified for the decimal column '"DeliveryFee"' on entity type '"Order"'. This will cause values to be silently truncated if they do not fit in the default precision and scale. Explicitly specify the SQL server column type that can accommodate all the values using 'HasColumnType()'.
2023-05-31 15:41:24.553 +07:00 [Warning] No type was specified for the decimal column '"ExtraMoney"' on entity type '"Order"'. This will cause values to be silently truncated if they do not fit in the default precision and scale. Explicitly specify the SQL server column type that can accommodate all the values using 'HasColumnType()'.
2023-05-31 15:41:24.555 +07:00 [Warning] No type was specified for the decimal column '"InvoiceValue"' on entity type '"Order"'. This will cause values to be silently truncated if they do not fit in the default precision and scale. Explicitly specify the SQL server column type that can accommodate all the values using 'HasColumnType()'.
2023-05-31 15:41:24.556 +07:00 [Warning] No type was specified for the decimal column '"TotalAmount"' on entity type '"Order"'. This will cause values to be silently truncated if they do not fit in the default precision and scale. Explicitly specify the SQL server column type that can accommodate all the values using 'HasColumnType()'.
2023-05-31 15:41:24.558 +07:00 [Warning] No type was specified for the decimal column '"TotalCustomerToPay"' on entity type '"Order"'. This will cause values to be silently truncated if they do not fit in the default precision and scale. Explicitly specify the SQL server column type that can accommodate all the values using 'HasColumnType()'.
2023-05-31 15:41:24.560 +07:00 [Warning] No type was specified for the decimal column '"TotalDiscountAmount"' on entity type '"Order"'. This will cause values to be silently truncated if they do not fit in the default precision and scale. Explicitly specify the SQL server column type that can accommodate all the values using 'HasColumnType()'.
2023-05-31 15:41:24.562 +07:00 [Warning] No type was specified for the decimal column '"OriginalPrice"' on entity type '"OrderDetail"'. This will cause values to be silently truncated if they do not fit in the default precision and scale. Explicitly specify the SQL server column type that can accommodate all the values using 'HasColumnType()'.
2023-05-31 15:41:24.564 +07:00 [Warning] No type was specified for the decimal column '"Price"' on entity type '"OrderDetail"'. This will cause values to be silently truncated if they do not fit in the default precision and scale. Explicitly specify the SQL server column type that can accommodate all the values using 'HasColumnType()'.
2023-05-31 15:41:24.566 +07:00 [Warning] No type was specified for the decimal column '"PriceDiscount"' on entity type '"OrderDetail"'. This will cause values to be silently truncated if they do not fit in the default precision and scale. Explicitly specify the SQL server column type that can accommodate all the values using 'HasColumnType()'.
2023-05-31 15:41:24.568 +07:00 [Warning] No type was specified for the decimal column '"TotalPrice"' on entity type '"OrderDetail"'. This will cause values to be silently truncated if they do not fit in the default precision and scale. Explicitly specify the SQL server column type that can accommodate all the values using 'HasColumnType()'.
2023-05-31 15:41:24.570 +07:00 [Warning] No type was specified for the decimal column '"CostPrice"' on entity type '"PriceListDetail"'. This will cause values to be silently truncated if they do not fit in the default precision and scale. Explicitly specify the SQL server column type that can accommodate all the values using 'HasColumnType()'.
2023-05-31 15:41:24.571 +07:00 [Warning] No type was specified for the decimal column '"Price"' on entity type '"PriceListDetail"'. This will cause values to be silently truncated if they do not fit in the default precision and scale. Explicitly specify the SQL server column type that can accommodate all the values using 'HasColumnType()'.
2023-05-31 15:41:24.574 +07:00 [Warning] No type was specified for the decimal column '"PriceNew"' on entity type '"PriceListDetail"'. This will cause values to be silently truncated if they do not fit in the default precision and scale. Explicitly specify the SQL server column type that can accommodate all the values using 'HasColumnType()'.
2023-05-31 15:41:24.576 +07:00 [Warning] No type was specified for the decimal column '"CostPrice"' on entity type '"Product"'. This will cause values to be silently truncated if they do not fit in the default precision and scale. Explicitly specify the SQL server column type that can accommodate all the values using 'HasColumnType()'.
2023-05-31 15:41:24.577 +07:00 [Warning] No type was specified for the decimal column '"Price"' on entity type '"Product"'. This will cause values to be silently truncated if they do not fit in the default precision and scale. Explicitly specify the SQL server column type that can accommodate all the values using 'HasColumnType()'.
2023-05-31 16:48:02.350 +07:00 [Error] Error at /api/vi-VN/Order/GetByCode, msg: An exception was thrown while attempting to evaluate a LINQ query parameter expression. To show additional information call EnableSensitiveDataLogging() when overriding DbContext.OnConfiguring.
System.InvalidOperationException: An exception was thrown while attempting to evaluate a LINQ query parameter expression. To show additional information call EnableSensitiveDataLogging() when overriding DbContext.OnConfiguring.
 ---> System.NullReferenceException: Object reference not set to an instance of an object.
   at lambda_method(Closure )
   at Microsoft.EntityFrameworkCore.Query.Internal.ParameterExtractingExpressionVisitor.GetValue(Expression expression, String& parameterName)
   --- End of inner exception stack trace ---
   at Microsoft.EntityFrameworkCore.Query.Internal.ParameterExtractingExpressionVisitor.GetValue(Expression expression, String& parameterName)
   at Microsoft.EntityFrameworkCore.Query.Internal.ParameterExtractingExpressionVisitor.Evaluate(Expression expression, Boolean generateParameter)
   at Microsoft.EntityFrameworkCore.Query.Internal.ParameterExtractingExpressionVisitor.Visit(Expression expression)
   at System.Linq.Expressions.ExpressionVisitor.VisitBinary(BinaryExpression node)
   at Microsoft.EntityFrameworkCore.Query.Internal.ParameterExtractingExpressionVisitor.Visit(Expression expression)
   at System.Linq.Expressions.ExpressionVisitor.VisitLambda[T](Expression`1 node)
   at Microsoft.EntityFrameworkCore.Query.Internal.ParameterExtractingExpressionVisitor.Visit(Expression expression)
   at System.Linq.Expressions.ExpressionVisitor.VisitUnary(UnaryExpression node)
   at Microsoft.EntityFrameworkCore.Query.Internal.ParameterExtractingExpressionVisitor.Visit(Expression expression)
   at System.Dynamic.Utils.ExpressionVisitorUtils.VisitArguments(ExpressionVisitor visitor, IArgumentProvider nodes)
   at System.Linq.Expressions.ExpressionVisitor.VisitMethodCall(MethodCallExpression node)
   at Microsoft.EntityFrameworkCore.Query.Internal.ParameterExtractingExpressionVisitor.Visit(Expression expression)
   at System.Dynamic.Utils.ExpressionVisitorUtils.VisitArguments(ExpressionVisitor visitor, IArgumentProvider nodes)
   at System.Linq.Expressions.ExpressionVisitor.VisitMethodCall(MethodCallExpression node)
   at Microsoft.EntityFrameworkCore.Query.Internal.ParameterExtractingExpressionVisitor.Visit(Expression expression)
   at System.Dynamic.Utils.ExpressionVisitorUtils.VisitArguments(ExpressionVisitor visitor, IArgumentProvider nodes)
   at System.Linq.Expressions.ExpressionVisitor.VisitMethodCall(MethodCallExpression node)
   at Microsoft.EntityFrameworkCore.Query.Internal.ParameterExtractingExpressionVisitor.Visit(Expression expression)
   at Microsoft.EntityFrameworkCore.Query.Internal.ParameterExtractingExpressionVisitor.ExtractParameters(Expression expression)
   at Microsoft.EntityFrameworkCore.Query.Internal.QueryCompiler.Execute[TResult](Expression query)
   at TTL_API.Services.Implements.OrderService.GetByCodeAsync(String code) in E:\01.Srouce\13.TTL\02.Srouce-api\srouce-api-ttl\TTL_API.Services\Implements\PO\OrderService.cs:line 103
   at TTL_API.WebApi.Controllers.WM.OrderController.GetByCodeAsync(String code) in E:\01.Srouce\13.TTL\02.Srouce-api\srouce-api-ttl\TTL_API.WebApi\Controllers\PO\OrderController.cs:line 90
2023-05-31 16:48:02.355 +07:00 [Warning] SlackWebHooks setting is empty, please check config
2023-05-31 16:48:02.490 +07:00 [Information] Info at , msg: AddOrder --> resInfo: {
  "CustomerName": null,
  "OrderStatusCode": null,
  "OrderStatusName": null,
  "URLResponseOnepay": null,
  "OrderDetail": [
    {
      "Id": 0,
      "OrderId": 0,
      "ProductId": 182,
      "UnitId": 1,
      "Quantity": 1,
      "Price": 123123.00,
      "TotalPrice": 103123.0,
      "Note": null,
      "OriginalPrice": 123123.00,
      "PriceDiscount": 20000.0,
      "ComboId": 0,
      "DT_DiscountKindId": 2,
      "CreateBy": null,
      "CreateOn": null,
      "ModifiedBy": null,
      "ModifiedOn": null,
      "IsDelete": false
    },
    {
      "Id": 0,
      "OrderId": 0,
      "ProductId": 181,
      "UnitId": 2,
      "Quantity": 1,
      "Price": 2468000.00,
      "TotalPrice": 2221200.0,
      "Note": null,
      "OriginalPrice": 2468000.00,
      "PriceDiscount": 10.0,
      "ComboId": 0,
      "DT_DiscountKindId": 1,
      "CreateBy": null,
      "CreateOn": null,
      "ModifiedBy": null,
      "ModifiedOn": null,
      "IsDelete": false
    }
  ],
  "Id": 0,
  "Code": "DH2305-000058",
  "CustomerId": 0,
  "CustomerCodeParent": null,
  "CustomerPhoneParent": "0985767138",
  "SaleCode": null,
  "SalePhone": "0373458945",
  "AcceptedCode": null,
  "AcceptedPhone": null,
  "CustomerCode": "KH000001",
  "OrderStatusId": 1,
  "OrderType": 1,
  "PriceId": 0,
  "OrganizationId": 68,
  "DiscountValue": 0,
  "Note": null,
  "IsDelivery": false,
  "DeliveryFee": 0.0,
  "TotalAmount": 2324323.0,
  "TotalDiscountAmount": 0.0,
  "FullName": "Huỳnh Thử",
  "Email": "huynhthu3458945@gmail.com",
  "Phone": "0373458945",
  "Phone2": null,
  "Address": "Quận 12",
  "PayTypeId": 2,
  "NoteDeliveryFee": null,
  "IsDiscountPercent": false,
  "NoteDiscount": null,
  "ParentId": 0,
  "IsVat": false,
  "InvoiceValue": 0.0,
  "InvoiceCode": null,
  "InvoiceDay": null,
  "ChannelId": 0,
  "TotalCustomerToPay": 0.0,
  "ExtraMoney": 0.0,
  "Ref_Id": 0,
  "Ref_Code": null,
  "CompanyName": null,
  "CompanyCode": null,
  "CompanyAddress": null,
  "TransportId": 1,
  "LinkPayment": null,
  "URLRequestOnePay": null,
  "OrderCodeSS": null,
  "OrderCodeHitaBot": null,
  "MT_DiscountKindId": 1,
  "CreateBy": 81,
  "CreateOn": "2023-05-31T16:48:02.3616257+07:00",
  "ModifiedBy": null,
  "ModifiedOn": null,
  "IsDelete": false
}
2023-05-31 16:48:02.999 +07:00 [Information] Info at , msg: UpdateOrder --> resInfo: {
  "CustomerName": null,
  "OrderStatusCode": null,
  "OrderStatusName": null,
  "URLResponseOnepay": null,
  "OrderDetail": [
    {
      "Id": 228,
      "OrderId": 70,
      "ProductId": 182,
      "UnitId": 1,
      "Quantity": 1,
      "Price": 123123.00,
      "TotalPrice": 103123.0,
      "Note": null,
      "OriginalPrice": 123123.00,
      "PriceDiscount": 20000.0,
      "ComboId": 0,
      "DT_DiscountKindId": 2,
      "CreateBy": 81,
      "CreateOn": "2023-05-31T16:48:02.3616257+07:00",
      "ModifiedBy": null,
      "ModifiedOn": null,
      "IsDelete": false
    },
    {
      "Id": 229,
      "OrderId": 70,
      "ProductId": 181,
      "UnitId": 2,
      "Quantity": 1,
      "Price": 2468000.00,
      "TotalPrice": 2221200.0,
      "Note": null,
      "OriginalPrice": 2468000.00,
      "PriceDiscount": 10.0,
      "ComboId": 0,
      "DT_DiscountKindId": 1,
      "CreateBy": 81,
      "CreateOn": "2023-05-31T16:48:02.3616257+07:00",
      "ModifiedBy": null,
      "ModifiedOn": null,
      "IsDelete": false
    }
  ],
  "Id": 70,
  "Code": "DH2305-000058",
  "CustomerId": 0,
  "CustomerCodeParent": null,
  "CustomerPhoneParent": "0985767138",
  "SaleCode": null,
  "SalePhone": "0373458945",
  "AcceptedCode": null,
  "AcceptedPhone": null,
  "CustomerCode": "KH000001",
  "OrderStatusId": 1,
  "OrderType": 1,
  "PriceId": 0,
  "OrganizationId": 68,
  "DiscountValue": 0,
  "Note": null,
  "IsDelivery": false,
  "DeliveryFee": 0.0,
  "TotalAmount": 2324323.0,
  "TotalDiscountAmount": 0.0,
  "FullName": "Huỳnh Thử",
  "Email": "huynhthu3458945@gmail.com",
  "Phone": "0373458945",
  "Phone2": null,
  "Address": "Quận 12",
  "PayTypeId": 2,
  "NoteDeliveryFee": null,
  "IsDiscountPercent": false,
  "NoteDiscount": null,
  "ParentId": 0,
  "IsVat": false,
  "InvoiceValue": 0.0,
  "InvoiceCode": null,
  "InvoiceDay": null,
  "ChannelId": 0,
  "TotalCustomerToPay": 0.0,
  "ExtraMoney": 0.0,
  "Ref_Id": 0,
  "Ref_Code": null,
  "CompanyName": null,
  "CompanyCode": null,
  "CompanyAddress": null,
  "TransportId": 1,
  "LinkPayment": "https://localhost:44367/PO/Payment?id=70",
  "URLRequestOnePay": null,
  "OrderCodeSS": null,
  "OrderCodeHitaBot": null,
  "MT_DiscountKindId": 1,
  "CreateBy": 81,
  "CreateOn": "2023-05-31T16:48:02.3616257+07:00",
  "ModifiedBy": null,
  "ModifiedOn": null,
  "IsDelete": false
}
2023-05-31 16:50:58.367 +07:00 [Information] Application started. Press Ctrl+C to shut down.
2023-05-31 16:50:58.402 +07:00 [Information] Hosting environment: "Production"
2023-05-31 16:50:58.404 +07:00 [Information] Content root path: "E:\01.Srouce\13.TTL\02.Srouce-api\srouce-api-ttl\TTL_API.WebApi"
2023-05-31 16:51:49.118 +07:00 [Warning] No type was specified for the decimal column '"DeliveryFee"' on entity type '"Bill"'. This will cause values to be silently truncated if they do not fit in the default precision and scale. Explicitly specify the SQL server column type that can accommodate all the values using 'HasColumnType()'.
2023-05-31 16:51:49.122 +07:00 [Warning] No type was specified for the decimal column '"TotalAmount"' on entity type '"Bill"'. This will cause values to be silently truncated if they do not fit in the default precision and scale. Explicitly specify the SQL server column type that can accommodate all the values using 'HasColumnType()'.
2023-05-31 16:51:49.125 +07:00 [Warning] No type was specified for the decimal column '"TotalDiscountAmount"' on entity type '"Bill"'. This will cause values to be silently truncated if they do not fit in the default precision and scale. Explicitly specify the SQL server column type that can accommodate all the values using 'HasColumnType()'.
2023-05-31 16:51:49.127 +07:00 [Warning] No type was specified for the decimal column '"Price"' on entity type '"BillDetail"'. This will cause values to be silently truncated if they do not fit in the default precision and scale. Explicitly specify the SQL server column type that can accommodate all the values using 'HasColumnType()'.
2023-05-31 16:51:49.128 +07:00 [Warning] No type was specified for the decimal column '"PriceDiscount"' on entity type '"BillDetail"'. This will cause values to be silently truncated if they do not fit in the default precision and scale. Explicitly specify the SQL server column type that can accommodate all the values using 'HasColumnType()'.
2023-05-31 16:51:49.130 +07:00 [Warning] No type was specified for the decimal column '"TotalPrice"' on entity type '"BillDetail"'. This will cause values to be silently truncated if they do not fit in the default precision and scale. Explicitly specify the SQL server column type that can accommodate all the values using 'HasColumnType()'.
2023-05-31 16:51:49.132 +07:00 [Warning] No type was specified for the decimal column '"Price"' on entity type '"BillDetailHistory"'. This will cause values to be silently truncated if they do not fit in the default precision and scale. Explicitly specify the SQL server column type that can accommodate all the values using 'HasColumnType()'.
2023-05-31 16:51:49.133 +07:00 [Warning] No type was specified for the decimal column '"PriceDiscount"' on entity type '"BillDetailHistory"'. This will cause values to be silently truncated if they do not fit in the default precision and scale. Explicitly specify the SQL server column type that can accommodate all the values using 'HasColumnType()'.
2023-05-31 16:51:49.135 +07:00 [Warning] No type was specified for the decimal column '"TotalPrice"' on entity type '"BillDetailHistory"'. This will cause values to be silently truncated if they do not fit in the default precision and scale. Explicitly specify the SQL server column type that can accommodate all the values using 'HasColumnType()'.
2023-05-31 16:51:49.137 +07:00 [Warning] No type was specified for the decimal column '"CostPrice"' on entity type '"Combo"'. This will cause values to be silently truncated if they do not fit in the default precision and scale. Explicitly specify the SQL server column type that can accommodate all the values using 'HasColumnType()'.
2023-05-31 16:51:49.139 +07:00 [Warning] No type was specified for the decimal column '"Price"' on entity type '"Combo"'. This will cause values to be silently truncated if they do not fit in the default precision and scale. Explicitly specify the SQL server column type that can accommodate all the values using 'HasColumnType()'.
2023-05-31 16:51:49.141 +07:00 [Warning] No type was specified for the decimal column '"DifferenceValue"' on entity type '"InventoryDetail"'. This will cause values to be silently truncated if they do not fit in the default precision and scale. Explicitly specify the SQL server column type that can accommodate all the values using 'HasColumnType()'.
2023-05-31 16:51:49.143 +07:00 [Warning] No type was specified for the decimal column '"DeliveryFee"' on entity type '"Order"'. This will cause values to be silently truncated if they do not fit in the default precision and scale. Explicitly specify the SQL server column type that can accommodate all the values using 'HasColumnType()'.
2023-05-31 16:51:49.145 +07:00 [Warning] No type was specified for the decimal column '"ExtraMoney"' on entity type '"Order"'. This will cause values to be silently truncated if they do not fit in the default precision and scale. Explicitly specify the SQL server column type that can accommodate all the values using 'HasColumnType()'.
2023-05-31 16:51:49.146 +07:00 [Warning] No type was specified for the decimal column '"InvoiceValue"' on entity type '"Order"'. This will cause values to be silently truncated if they do not fit in the default precision and scale. Explicitly specify the SQL server column type that can accommodate all the values using 'HasColumnType()'.
2023-05-31 16:51:49.148 +07:00 [Warning] No type was specified for the decimal column '"TotalAmount"' on entity type '"Order"'. This will cause values to be silently truncated if they do not fit in the default precision and scale. Explicitly specify the SQL server column type that can accommodate all the values using 'HasColumnType()'.
2023-05-31 16:51:49.150 +07:00 [Warning] No type was specified for the decimal column '"TotalCustomerToPay"' on entity type '"Order"'. This will cause values to be silently truncated if they do not fit in the default precision and scale. Explicitly specify the SQL server column type that can accommodate all the values using 'HasColumnType()'.
2023-05-31 16:51:49.152 +07:00 [Warning] No type was specified for the decimal column '"TotalDiscountAmount"' on entity type '"Order"'. This will cause values to be silently truncated if they do not fit in the default precision and scale. Explicitly specify the SQL server column type that can accommodate all the values using 'HasColumnType()'.
2023-05-31 16:51:49.153 +07:00 [Warning] No type was specified for the decimal column '"OriginalPrice"' on entity type '"OrderDetail"'. This will cause values to be silently truncated if they do not fit in the default precision and scale. Explicitly specify the SQL server column type that can accommodate all the values using 'HasColumnType()'.
2023-05-31 16:51:49.156 +07:00 [Warning] No type was specified for the decimal column '"Price"' on entity type '"OrderDetail"'. This will cause values to be silently truncated if they do not fit in the default precision and scale. Explicitly specify the SQL server column type that can accommodate all the values using 'HasColumnType()'.
2023-05-31 16:51:49.157 +07:00 [Warning] No type was specified for the decimal column '"PriceDiscount"' on entity type '"OrderDetail"'. This will cause values to be silently truncated if they do not fit in the default precision and scale. Explicitly specify the SQL server column type that can accommodate all the values using 'HasColumnType()'.
2023-05-31 16:51:49.159 +07:00 [Warning] No type was specified for the decimal column '"TotalPrice"' on entity type '"OrderDetail"'. This will cause values to be silently truncated if they do not fit in the default precision and scale. Explicitly specify the SQL server column type that can accommodate all the values using 'HasColumnType()'.
2023-05-31 16:51:49.161 +07:00 [Warning] No type was specified for the decimal column '"CostPrice"' on entity type '"PriceListDetail"'. This will cause values to be silently truncated if they do not fit in the default precision and scale. Explicitly specify the SQL server column type that can accommodate all the values using 'HasColumnType()'.
2023-05-31 16:51:49.163 +07:00 [Warning] No type was specified for the decimal column '"Price"' on entity type '"PriceListDetail"'. This will cause values to be silently truncated if they do not fit in the default precision and scale. Explicitly specify the SQL server column type that can accommodate all the values using 'HasColumnType()'.
2023-05-31 16:51:49.164 +07:00 [Warning] No type was specified for the decimal column '"PriceNew"' on entity type '"PriceListDetail"'. This will cause values to be silently truncated if they do not fit in the default precision and scale. Explicitly specify the SQL server column type that can accommodate all the values using 'HasColumnType()'.
2023-05-31 16:51:49.166 +07:00 [Warning] No type was specified for the decimal column '"CostPrice"' on entity type '"Product"'. This will cause values to be silently truncated if they do not fit in the default precision and scale. Explicitly specify the SQL server column type that can accommodate all the values using 'HasColumnType()'.
2023-05-31 16:51:49.168 +07:00 [Warning] No type was specified for the decimal column '"Price"' on entity type '"Product"'. This will cause values to be silently truncated if they do not fit in the default precision and scale. Explicitly specify the SQL server column type that can accommodate all the values using 'HasColumnType()'.
2023-05-31 17:08:08.431 +07:00 [Error] Error at /api/vi-VN/Store/GetById, msg: Object reference not set to an instance of an object.
System.NullReferenceException: Object reference not set to an instance of an object.
   at TTL_API.Services.Implements.StoreService.GetByIdAsync(Int32 id) in E:\01.Srouce\13.TTL\02.Srouce-api\srouce-api-ttl\TTL_API.Services\Implements\WM\StoreService.cs:line 85
   at TTL_API.WebApi.Controllers.WM.StoreController.GetByIdAsync(Int32 id) in E:\01.Srouce\13.TTL\02.Srouce-api\srouce-api-ttl\TTL_API.WebApi\Controllers\WM\StoreController.cs:line 131
2023-05-31 17:08:08.433 +07:00 [Warning] SlackWebHooks setting is empty, please check config
2023-05-31 17:35:19.562 +07:00 [Error] Error at /api/vi-VN/Store/GetById, msg: Object reference not set to an instance of an object.
System.NullReferenceException: Object reference not set to an instance of an object.
   at TTL_API.Services.Implements.StoreService.GetByIdAsync(Int32 id) in E:\01.Srouce\13.TTL\02.Srouce-api\srouce-api-ttl\TTL_API.Services\Implements\WM\StoreService.cs:line 85
   at TTL_API.WebApi.Controllers.WM.StoreController.GetByIdAsync(Int32 id) in E:\01.Srouce\13.TTL\02.Srouce-api\srouce-api-ttl\TTL_API.WebApi\Controllers\WM\StoreController.cs:line 131
2023-05-31 17:35:19.564 +07:00 [Warning] SlackWebHooks setting is empty, please check config
