2023-05-25 09:42:15.657 +07:00 [Information] Application started. Press Ctrl+C to shut down.
2023-05-25 09:42:15.708 +07:00 [Information] Hosting environment: "Production"
2023-05-25 09:42:15.710 +07:00 [Information] Content root path: "E:\01.Srouce\13.TTL\02.Srouce-api\srouce-api-ttl\TTL_API.WebApi"
2023-05-25 09:53:46.208 +07:00 [Warning] No type was specified for the decimal column '"DeliveryFee"' on entity type '"Bill"'. This will cause values to be silently truncated if they do not fit in the default precision and scale. Explicitly specify the SQL server column type that can accommodate all the values using 'HasColumnType()'.
2023-05-25 09:53:46.210 +07:00 [Warning] No type was specified for the decimal column '"TotalAmount"' on entity type '"Bill"'. This will cause values to be silently truncated if they do not fit in the default precision and scale. Explicitly specify the SQL server column type that can accommodate all the values using 'HasColumnType()'.
2023-05-25 09:53:46.212 +07:00 [Warning] No type was specified for the decimal column '"TotalDiscountAmount"' on entity type '"Bill"'. This will cause values to be silently truncated if they do not fit in the default precision and scale. Explicitly specify the SQL server column type that can accommodate all the values using 'HasColumnType()'.
2023-05-25 09:53:46.213 +07:00 [Warning] No type was specified for the decimal column '"Price"' on entity type '"BillDetail"'. This will cause values to be silently truncated if they do not fit in the default precision and scale. Explicitly specify the SQL server column type that can accommodate all the values using 'HasColumnType()'.
2023-05-25 09:53:46.215 +07:00 [Warning] No type was specified for the decimal column '"PriceDiscount"' on entity type '"BillDetail"'. This will cause values to be silently truncated if they do not fit in the default precision and scale. Explicitly specify the SQL server column type that can accommodate all the values using 'HasColumnType()'.
2023-05-25 09:53:46.216 +07:00 [Warning] No type was specified for the decimal column '"TotalPrice"' on entity type '"BillDetail"'. This will cause values to be silently truncated if they do not fit in the default precision and scale. Explicitly specify the SQL server column type that can accommodate all the values using 'HasColumnType()'.
2023-05-25 09:53:46.217 +07:00 [Warning] No type was specified for the decimal column '"Price"' on entity type '"BillDetailHistory"'. This will cause values to be silently truncated if they do not fit in the default precision and scale. Explicitly specify the SQL server column type that can accommodate all the values using 'HasColumnType()'.
2023-05-25 09:53:46.218 +07:00 [Warning] No type was specified for the decimal column '"PriceDiscount"' on entity type '"BillDetailHistory"'. This will cause values to be silently truncated if they do not fit in the default precision and scale. Explicitly specify the SQL server column type that can accommodate all the values using 'HasColumnType()'.
2023-05-25 09:53:46.220 +07:00 [Warning] No type was specified for the decimal column '"TotalPrice"' on entity type '"BillDetailHistory"'. This will cause values to be silently truncated if they do not fit in the default precision and scale. Explicitly specify the SQL server column type that can accommodate all the values using 'HasColumnType()'.
2023-05-25 09:53:46.221 +07:00 [Warning] No type was specified for the decimal column '"CostPrice"' on entity type '"Combo"'. This will cause values to be silently truncated if they do not fit in the default precision and scale. Explicitly specify the SQL server column type that can accommodate all the values using 'HasColumnType()'.
2023-05-25 09:53:46.222 +07:00 [Warning] No type was specified for the decimal column '"Price"' on entity type '"Combo"'. This will cause values to be silently truncated if they do not fit in the default precision and scale. Explicitly specify the SQL server column type that can accommodate all the values using 'HasColumnType()'.
2023-05-25 09:53:46.223 +07:00 [Warning] No type was specified for the decimal column '"DifferenceValue"' on entity type '"InventoryDetail"'. This will cause values to be silently truncated if they do not fit in the default precision and scale. Explicitly specify the SQL server column type that can accommodate all the values using 'HasColumnType()'.
2023-05-25 09:53:46.224 +07:00 [Warning] No type was specified for the decimal column '"DeliveryFee"' on entity type '"Order"'. This will cause values to be silently truncated if they do not fit in the default precision and scale. Explicitly specify the SQL server column type that can accommodate all the values using 'HasColumnType()'.
2023-05-25 09:53:46.225 +07:00 [Warning] No type was specified for the decimal column '"ExtraMoney"' on entity type '"Order"'. This will cause values to be silently truncated if they do not fit in the default precision and scale. Explicitly specify the SQL server column type that can accommodate all the values using 'HasColumnType()'.
2023-05-25 09:53:46.226 +07:00 [Warning] No type was specified for the decimal column '"InvoiceValue"' on entity type '"Order"'. This will cause values to be silently truncated if they do not fit in the default precision and scale. Explicitly specify the SQL server column type that can accommodate all the values using 'HasColumnType()'.
2023-05-25 09:53:46.228 +07:00 [Warning] No type was specified for the decimal column '"TotalAmount"' on entity type '"Order"'. This will cause values to be silently truncated if they do not fit in the default precision and scale. Explicitly specify the SQL server column type that can accommodate all the values using 'HasColumnType()'.
2023-05-25 09:53:46.229 +07:00 [Warning] No type was specified for the decimal column '"TotalCustomerToPay"' on entity type '"Order"'. This will cause values to be silently truncated if they do not fit in the default precision and scale. Explicitly specify the SQL server column type that can accommodate all the values using 'HasColumnType()'.
2023-05-25 09:53:46.230 +07:00 [Warning] No type was specified for the decimal column '"TotalDiscountAmount"' on entity type '"Order"'. This will cause values to be silently truncated if they do not fit in the default precision and scale. Explicitly specify the SQL server column type that can accommodate all the values using 'HasColumnType()'.
2023-05-25 09:53:46.231 +07:00 [Warning] No type was specified for the decimal column '"OriginalPrice"' on entity type '"OrderDetail"'. This will cause values to be silently truncated if they do not fit in the default precision and scale. Explicitly specify the SQL server column type that can accommodate all the values using 'HasColumnType()'.
2023-05-25 09:53:46.233 +07:00 [Warning] No type was specified for the decimal column '"Price"' on entity type '"OrderDetail"'. This will cause values to be silently truncated if they do not fit in the default precision and scale. Explicitly specify the SQL server column type that can accommodate all the values using 'HasColumnType()'.
2023-05-25 09:53:46.234 +07:00 [Warning] No type was specified for the decimal column '"PriceDiscount"' on entity type '"OrderDetail"'. This will cause values to be silently truncated if they do not fit in the default precision and scale. Explicitly specify the SQL server column type that can accommodate all the values using 'HasColumnType()'.
2023-05-25 09:53:46.235 +07:00 [Warning] No type was specified for the decimal column '"TotalPrice"' on entity type '"OrderDetail"'. This will cause values to be silently truncated if they do not fit in the default precision and scale. Explicitly specify the SQL server column type that can accommodate all the values using 'HasColumnType()'.
2023-05-25 09:53:46.236 +07:00 [Warning] No type was specified for the decimal column '"CostPrice"' on entity type '"PriceListDetail"'. This will cause values to be silently truncated if they do not fit in the default precision and scale. Explicitly specify the SQL server column type that can accommodate all the values using 'HasColumnType()'.
2023-05-25 09:53:46.238 +07:00 [Warning] No type was specified for the decimal column '"Price"' on entity type '"PriceListDetail"'. This will cause values to be silently truncated if they do not fit in the default precision and scale. Explicitly specify the SQL server column type that can accommodate all the values using 'HasColumnType()'.
2023-05-25 09:53:46.239 +07:00 [Warning] No type was specified for the decimal column '"PriceNew"' on entity type '"PriceListDetail"'. This will cause values to be silently truncated if they do not fit in the default precision and scale. Explicitly specify the SQL server column type that can accommodate all the values using 'HasColumnType()'.
2023-05-25 09:53:46.240 +07:00 [Warning] No type was specified for the decimal column '"CostPrice"' on entity type '"Product"'. This will cause values to be silently truncated if they do not fit in the default precision and scale. Explicitly specify the SQL server column type that can accommodate all the values using 'HasColumnType()'.
2023-05-25 09:53:46.241 +07:00 [Warning] No type was specified for the decimal column '"Price"' on entity type '"Product"'. This will cause values to be silently truncated if they do not fit in the default precision and scale. Explicitly specify the SQL server column type that can accommodate all the values using 'HasColumnType()'.
2023-05-25 14:48:24.299 +07:00 [Information] Application started. Press Ctrl+C to shut down.
2023-05-25 14:48:24.345 +07:00 [Information] Hosting environment: "Production"
2023-05-25 14:48:24.347 +07:00 [Information] Content root path: "E:\01.Srouce\13.TTL\02.Srouce-api\srouce-api-ttl\TTL_API.WebApi"
2023-05-25 14:48:58.506 +07:00 [Warning] No type was specified for the decimal column '"DeliveryFee"' on entity type '"Bill"'. This will cause values to be silently truncated if they do not fit in the default precision and scale. Explicitly specify the SQL server column type that can accommodate all the values using 'HasColumnType()'.
2023-05-25 14:48:58.509 +07:00 [Warning] No type was specified for the decimal column '"TotalAmount"' on entity type '"Bill"'. This will cause values to be silently truncated if they do not fit in the default precision and scale. Explicitly specify the SQL server column type that can accommodate all the values using 'HasColumnType()'.
2023-05-25 14:48:58.511 +07:00 [Warning] No type was specified for the decimal column '"TotalDiscountAmount"' on entity type '"Bill"'. This will cause values to be silently truncated if they do not fit in the default precision and scale. Explicitly specify the SQL server column type that can accommodate all the values using 'HasColumnType()'.
2023-05-25 14:48:58.512 +07:00 [Warning] No type was specified for the decimal column '"Price"' on entity type '"BillDetail"'. This will cause values to be silently truncated if they do not fit in the default precision and scale. Explicitly specify the SQL server column type that can accommodate all the values using 'HasColumnType()'.
2023-05-25 14:48:58.514 +07:00 [Warning] No type was specified for the decimal column '"PriceDiscount"' on entity type '"BillDetail"'. This will cause values to be silently truncated if they do not fit in the default precision and scale. Explicitly specify the SQL server column type that can accommodate all the values using 'HasColumnType()'.
2023-05-25 14:48:58.515 +07:00 [Warning] No type was specified for the decimal column '"TotalPrice"' on entity type '"BillDetail"'. This will cause values to be silently truncated if they do not fit in the default precision and scale. Explicitly specify the SQL server column type that can accommodate all the values using 'HasColumnType()'.
2023-05-25 14:48:58.517 +07:00 [Warning] No type was specified for the decimal column '"Price"' on entity type '"BillDetailHistory"'. This will cause values to be silently truncated if they do not fit in the default precision and scale. Explicitly specify the SQL server column type that can accommodate all the values using 'HasColumnType()'.
2023-05-25 14:48:58.518 +07:00 [Warning] No type was specified for the decimal column '"PriceDiscount"' on entity type '"BillDetailHistory"'. This will cause values to be silently truncated if they do not fit in the default precision and scale. Explicitly specify the SQL server column type that can accommodate all the values using 'HasColumnType()'.
2023-05-25 14:48:58.519 +07:00 [Warning] No type was specified for the decimal column '"TotalPrice"' on entity type '"BillDetailHistory"'. This will cause values to be silently truncated if they do not fit in the default precision and scale. Explicitly specify the SQL server column type that can accommodate all the values using 'HasColumnType()'.
2023-05-25 14:48:58.520 +07:00 [Warning] No type was specified for the decimal column '"CostPrice"' on entity type '"Combo"'. This will cause values to be silently truncated if they do not fit in the default precision and scale. Explicitly specify the SQL server column type that can accommodate all the values using 'HasColumnType()'.
2023-05-25 14:48:58.522 +07:00 [Warning] No type was specified for the decimal column '"Price"' on entity type '"Combo"'. This will cause values to be silently truncated if they do not fit in the default precision and scale. Explicitly specify the SQL server column type that can accommodate all the values using 'HasColumnType()'.
2023-05-25 14:48:58.523 +07:00 [Warning] No type was specified for the decimal column '"DifferenceValue"' on entity type '"InventoryDetail"'. This will cause values to be silently truncated if they do not fit in the default precision and scale. Explicitly specify the SQL server column type that can accommodate all the values using 'HasColumnType()'.
2023-05-25 14:48:58.524 +07:00 [Warning] No type was specified for the decimal column '"DeliveryFee"' on entity type '"Order"'. This will cause values to be silently truncated if they do not fit in the default precision and scale. Explicitly specify the SQL server column type that can accommodate all the values using 'HasColumnType()'.
2023-05-25 14:48:58.525 +07:00 [Warning] No type was specified for the decimal column '"ExtraMoney"' on entity type '"Order"'. This will cause values to be silently truncated if they do not fit in the default precision and scale. Explicitly specify the SQL server column type that can accommodate all the values using 'HasColumnType()'.
2023-05-25 14:48:58.527 +07:00 [Warning] No type was specified for the decimal column '"InvoiceValue"' on entity type '"Order"'. This will cause values to be silently truncated if they do not fit in the default precision and scale. Explicitly specify the SQL server column type that can accommodate all the values using 'HasColumnType()'.
2023-05-25 14:48:58.528 +07:00 [Warning] No type was specified for the decimal column '"TotalAmount"' on entity type '"Order"'. This will cause values to be silently truncated if they do not fit in the default precision and scale. Explicitly specify the SQL server column type that can accommodate all the values using 'HasColumnType()'.
2023-05-25 14:48:58.529 +07:00 [Warning] No type was specified for the decimal column '"TotalCustomerToPay"' on entity type '"Order"'. This will cause values to be silently truncated if they do not fit in the default precision and scale. Explicitly specify the SQL server column type that can accommodate all the values using 'HasColumnType()'.
2023-05-25 14:48:58.531 +07:00 [Warning] No type was specified for the decimal column '"TotalDiscountAmount"' on entity type '"Order"'. This will cause values to be silently truncated if they do not fit in the default precision and scale. Explicitly specify the SQL server column type that can accommodate all the values using 'HasColumnType()'.
2023-05-25 14:48:58.532 +07:00 [Warning] No type was specified for the decimal column '"OriginalPrice"' on entity type '"OrderDetail"'. This will cause values to be silently truncated if they do not fit in the default precision and scale. Explicitly specify the SQL server column type that can accommodate all the values using 'HasColumnType()'.
2023-05-25 14:48:58.533 +07:00 [Warning] No type was specified for the decimal column '"Price"' on entity type '"OrderDetail"'. This will cause values to be silently truncated if they do not fit in the default precision and scale. Explicitly specify the SQL server column type that can accommodate all the values using 'HasColumnType()'.
2023-05-25 14:48:58.535 +07:00 [Warning] No type was specified for the decimal column '"PriceDiscount"' on entity type '"OrderDetail"'. This will cause values to be silently truncated if they do not fit in the default precision and scale. Explicitly specify the SQL server column type that can accommodate all the values using 'HasColumnType()'.
2023-05-25 14:48:58.536 +07:00 [Warning] No type was specified for the decimal column '"TotalPrice"' on entity type '"OrderDetail"'. This will cause values to be silently truncated if they do not fit in the default precision and scale. Explicitly specify the SQL server column type that can accommodate all the values using 'HasColumnType()'.
2023-05-25 14:48:58.537 +07:00 [Warning] No type was specified for the decimal column '"CostPrice"' on entity type '"PriceListDetail"'. This will cause values to be silently truncated if they do not fit in the default precision and scale. Explicitly specify the SQL server column type that can accommodate all the values using 'HasColumnType()'.
2023-05-25 14:48:58.538 +07:00 [Warning] No type was specified for the decimal column '"Price"' on entity type '"PriceListDetail"'. This will cause values to be silently truncated if they do not fit in the default precision and scale. Explicitly specify the SQL server column type that can accommodate all the values using 'HasColumnType()'.
2023-05-25 14:48:58.540 +07:00 [Warning] No type was specified for the decimal column '"PriceNew"' on entity type '"PriceListDetail"'. This will cause values to be silently truncated if they do not fit in the default precision and scale. Explicitly specify the SQL server column type that can accommodate all the values using 'HasColumnType()'.
2023-05-25 14:48:58.541 +07:00 [Warning] No type was specified for the decimal column '"CostPrice"' on entity type '"Product"'. This will cause values to be silently truncated if they do not fit in the default precision and scale. Explicitly specify the SQL server column type that can accommodate all the values using 'HasColumnType()'.
2023-05-25 14:48:58.542 +07:00 [Warning] No type was specified for the decimal column '"Price"' on entity type '"Product"'. This will cause values to be silently truncated if they do not fit in the default precision and scale. Explicitly specify the SQL server column type that can accommodate all the values using 'HasColumnType()'.
2023-05-25 14:52:14.773 +07:00 [Information] Info at , msg: AddCustomer --> resInfo: {
  "Ref_Phone": null,
  "DistrictName": null,
  "ProvinceName": null,
  "GenderName": null,
  "CustomerStatusName": null,
  "CustomerTypeName": null,
  "OrganizationName": null,
  "ContactList": null,
  "Id": 0,
  "Code": "KH000180",
  "FullName": "AA",
  "Birthday": "19/05/2023",
  "GenderId": 1,
  "Phone": "0373458977",
  "Email": "a@gmail.com",
  "Tel": null,
  "Address": "string",
  "DistrictId": 0,
  "ProvinceId": 0,
  "IsCompany": false,
  "CompanyName": null,
  "ParentName": null,
  "ParentPhone": null,
  "ParentEmail": null,
  "CustomerTypeId": 0,
  "CustomerStatusId": 0,
  "OrganizationId": 68,
  "AccountId": 0,
  "Ref_Id": 0,
  "Ref_Code": null,
  "Ref_Name": null,
  "Ref_Source": "DIGITALSALES",
  "Note": null,
  "Identitycard": null,
  "Bank": null,
  "BankBranch": null,
  "BankAccountName": null,
  "BankAccount": null,
  "CityBank": null,
  "CreateBy": 85,
  "CreateOn": "2023-05-25T00:00:00+07:00",
  "ModifiedBy": null,
  "ModifiedOn": null,
  "IsDelete": false
}
2023-05-25 14:52:14.979 +07:00 [Error] Failed executing DbCommand ("27"ms) [Parameters=["@p0='?' (DbType = Int32), @p1='?' (Size = 4000), @p2='?' (Size = 4000), @p3='?' (Size = 4000), @p4='?' (Size = 4000), @p5='?' (Size = 4000), @p6='?' (Size = 4000), @p7='?' (Size = 4000), @p8='?' (Size = 4000), @p9='?' (Size = 4000), @p10='?' (DbType = Int32), @p11='?' (DbType = DateTime2), @p12='?' (DbType = Int32), @p13='?' (DbType = Int32), @p14='?' (DbType = Int32), @p15='?' (Size = 4000), @p16='?' (Size = 4000), @p17='?' (DbType = Int32), @p18='?' (Size = 4000), @p19='?' (DbType = Boolean), @p20='?' (DbType = Boolean), @p21='?' (DbType = Int32), @p22='?' (DbType = DateTime2), @p23='?' (Size = 4000), @p24='?' (DbType = Int32), @p25='?' (Size = 4000), @p26='?' (Size = 4000), @p27='?' (Size = 4000), @p28='?' (Size = 4000), @p29='?' (DbType = Int32), @p30='?' (Size = 4000), @p31='?' (DbType = Int32), @p32='?' (Size = 4000), @p33='?' (Size = 4000), @p34='?' (Size = 4000)"], CommandType='Text', CommandTimeout='180']"
""SET NOCOUNT ON;
INSERT INTO [Customer] ([AccountId], [Address], [Bank], [BankAccount], [BankAccountName], [BankBranch], [Birthday], [CityBank], [Code], [CompanyName], [CreateBy], [CreateOn], [CustomerStatusId], [CustomerTypeId], [DistrictId], [Email], [FullName], [GenderId], [Identitycard], [IsCompany], [IsDelete], [ModifiedBy], [ModifiedOn], [Note], [OrganizationId], [ParentEmail], [ParentName], [ParentPhone], [Phone], [ProvinceId], [Ref_Code], [Ref_Id], [Ref_Name], [Ref_Source], [Tel])
VALUES (@p0, @p1, @p2, @p3, @p4, @p5, @p6, @p7, @p8, @p9, @p10, @p11, @p12, @p13, @p14, @p15, @p16, @p17, @p18, @p19, @p20, @p21, @p22, @p23, @p24, @p25, @p26, @p27, @p28, @p29, @p30, @p31, @p32, @p33, @p34);
SELECT [Id]
FROM [Customer]
WHERE @@ROWCOUNT = 1 AND [Id] = scope_identity();"
2023-05-25 14:52:15.071 +07:00 [Error] An exception occurred in the database while saving changes for context type '"TTL_API.DbContext.Models.TTL_APIContext"'."
""Microsoft.EntityFrameworkCore.DbUpdateException: An error occurred while updating the entries. See the inner exception for details.
 ---> Microsoft.Data.SqlClient.SqlException (0x80131904): The INSERT statement conflicted with the FOREIGN KEY constraint \"FK_Customer_CustomerStatus\". The conflict occurred in database \"DB_ERP_NEW\", table \"dbo.CustomerStatus\", column 'Id'.
The statement has been terminated.
   at Microsoft.Data.SqlClient.SqlCommand.<>c.<ExecuteDbDataReaderAsync>b__164_0(Task`1 result)
   at System.Threading.Tasks.ContinuationResultTaskFromResultTask`2.InnerInvoke()
   at System.Threading.Tasks.Task.<>c.<.cctor>b__274_0(Object obj)
   at System.Threading.ExecutionContext.RunInternal(ExecutionContext executionContext, ContextCallback callback, Object state)
--- End of stack trace from previous location where exception was thrown ---
   at System.Threading.ExecutionContext.RunInternal(ExecutionContext executionContext, ContextCallback callback, Object state)
   at System.Threading.Tasks.Task.ExecuteWithThreadLocal(Task& currentTaskSlot, Thread threadPoolThread)
--- End of stack trace from previous location where exception was thrown ---
   at Microsoft.EntityFrameworkCore.Storage.RelationalCommand.ExecuteReaderAsync(RelationalCommandParameterObject parameterObject, CancellationToken cancellationToken)
   at Microsoft.EntityFrameworkCore.Storage.RelationalCommand.ExecuteReaderAsync(RelationalCommandParameterObject parameterObject, CancellationToken cancellationToken)
   at Microsoft.EntityFrameworkCore.Storage.RelationalCommand.ExecuteReaderAsync(RelationalCommandParameterObject parameterObject, CancellationToken cancellationToken)
   at Microsoft.EntityFrameworkCore.Update.ReaderModificationCommandBatch.ExecuteAsync(IRelationalConnection connection, CancellationToken cancellationToken)
ClientConnectionId:d18493e9-2b51-4b97-9aa8-eaf56f2c9224
Error Number:547,State:0,Class:16
   --- End of inner exception stack trace ---
   at Microsoft.EntityFrameworkCore.Update.ReaderModificationCommandBatch.ExecuteAsync(IRelationalConnection connection, CancellationToken cancellationToken)
   at Microsoft.EntityFrameworkCore.Update.Internal.BatchExecutor.ExecuteAsync(IEnumerable`1 commandBatches, IRelationalConnection connection, CancellationToken cancellationToken)
   at Microsoft.EntityFrameworkCore.Update.Internal.BatchExecutor.ExecuteAsync(IEnumerable`1 commandBatches, IRelationalConnection connection, CancellationToken cancellationToken)
   at Microsoft.EntityFrameworkCore.ChangeTracking.Internal.StateManager.SaveChangesAsync(IList`1 entriesToSave, CancellationToken cancellationToken)
   at Microsoft.EntityFrameworkCore.ChangeTracking.Internal.StateManager.SaveChangesAsync(DbContext _, Boolean acceptAllChangesOnSuccess, CancellationToken cancellationToken)
   at Microsoft.EntityFrameworkCore.SqlServer.Storage.Internal.SqlServerExecutionStrategy.ExecuteAsync[TState,TResult](TState state, Func`4 operation, Func`4 verifySucceeded, CancellationToken cancellationToken)
   at Microsoft.EntityFrameworkCore.DbContext.SaveChangesAsync(Boolean acceptAllChangesOnSuccess, CancellationToken cancellationToken)"
Microsoft.EntityFrameworkCore.DbUpdateException: An error occurred while updating the entries. See the inner exception for details.
 ---> Microsoft.Data.SqlClient.SqlException (0x80131904): The INSERT statement conflicted with the FOREIGN KEY constraint "FK_Customer_CustomerStatus". The conflict occurred in database "DB_ERP_NEW", table "dbo.CustomerStatus", column 'Id'.
The statement has been terminated.
   at Microsoft.Data.SqlClient.SqlCommand.<>c.<ExecuteDbDataReaderAsync>b__164_0(Task`1 result)
   at System.Threading.Tasks.ContinuationResultTaskFromResultTask`2.InnerInvoke()
   at System.Threading.Tasks.Task.<>c.<.cctor>b__274_0(Object obj)
   at System.Threading.ExecutionContext.RunInternal(ExecutionContext executionContext, ContextCallback callback, Object state)
--- End of stack trace from previous location where exception was thrown ---
   at System.Threading.ExecutionContext.RunInternal(ExecutionContext executionContext, ContextCallback callback, Object state)
   at System.Threading.Tasks.Task.ExecuteWithThreadLocal(Task& currentTaskSlot, Thread threadPoolThread)
--- End of stack trace from previous location where exception was thrown ---
   at Microsoft.EntityFrameworkCore.Storage.RelationalCommand.ExecuteReaderAsync(RelationalCommandParameterObject parameterObject, CancellationToken cancellationToken)
   at Microsoft.EntityFrameworkCore.Storage.RelationalCommand.ExecuteReaderAsync(RelationalCommandParameterObject parameterObject, CancellationToken cancellationToken)
   at Microsoft.EntityFrameworkCore.Storage.RelationalCommand.ExecuteReaderAsync(RelationalCommandParameterObject parameterObject, CancellationToken cancellationToken)
   at Microsoft.EntityFrameworkCore.Update.ReaderModificationCommandBatch.ExecuteAsync(IRelationalConnection connection, CancellationToken cancellationToken)
ClientConnectionId:d18493e9-2b51-4b97-9aa8-eaf56f2c9224
Error Number:547,State:0,Class:16
   --- End of inner exception stack trace ---
   at Microsoft.EntityFrameworkCore.Update.ReaderModificationCommandBatch.ExecuteAsync(IRelationalConnection connection, CancellationToken cancellationToken)
   at Microsoft.EntityFrameworkCore.Update.Internal.BatchExecutor.ExecuteAsync(IEnumerable`1 commandBatches, IRelationalConnection connection, CancellationToken cancellationToken)
   at Microsoft.EntityFrameworkCore.Update.Internal.BatchExecutor.ExecuteAsync(IEnumerable`1 commandBatches, IRelationalConnection connection, CancellationToken cancellationToken)
   at Microsoft.EntityFrameworkCore.ChangeTracking.Internal.StateManager.SaveChangesAsync(IList`1 entriesToSave, CancellationToken cancellationToken)
   at Microsoft.EntityFrameworkCore.ChangeTracking.Internal.StateManager.SaveChangesAsync(DbContext _, Boolean acceptAllChangesOnSuccess, CancellationToken cancellationToken)
   at Microsoft.EntityFrameworkCore.SqlServer.Storage.Internal.SqlServerExecutionStrategy.ExecuteAsync[TState,TResult](TState state, Func`4 operation, Func`4 verifySucceeded, CancellationToken cancellationToken)
   at Microsoft.EntityFrameworkCore.DbContext.SaveChangesAsync(Boolean acceptAllChangesOnSuccess, CancellationToken cancellationToken)
2023-05-25 14:52:15.268 +07:00 [Error] Error at /api/vi-VN/Customer/Add, msg: An error occurred while updating the entries. See the inner exception for details.
Microsoft.EntityFrameworkCore.DbUpdateException: An error occurred while updating the entries. See the inner exception for details.
 ---> Microsoft.Data.SqlClient.SqlException (0x80131904): The INSERT statement conflicted with the FOREIGN KEY constraint "FK_Customer_CustomerStatus". The conflict occurred in database "DB_ERP_NEW", table "dbo.CustomerStatus", column 'Id'.
The statement has been terminated.
   at Microsoft.Data.SqlClient.SqlCommand.<>c.<ExecuteDbDataReaderAsync>b__164_0(Task`1 result)
   at System.Threading.Tasks.ContinuationResultTaskFromResultTask`2.InnerInvoke()
   at System.Threading.Tasks.Task.<>c.<.cctor>b__274_0(Object obj)
   at System.Threading.ExecutionContext.RunInternal(ExecutionContext executionContext, ContextCallback callback, Object state)
--- End of stack trace from previous location where exception was thrown ---
   at System.Threading.ExecutionContext.RunInternal(ExecutionContext executionContext, ContextCallback callback, Object state)
   at System.Threading.Tasks.Task.ExecuteWithThreadLocal(Task& currentTaskSlot, Thread threadPoolThread)
--- End of stack trace from previous location where exception was thrown ---
   at Microsoft.EntityFrameworkCore.Storage.RelationalCommand.ExecuteReaderAsync(RelationalCommandParameterObject parameterObject, CancellationToken cancellationToken)
   at Microsoft.EntityFrameworkCore.Storage.RelationalCommand.ExecuteReaderAsync(RelationalCommandParameterObject parameterObject, CancellationToken cancellationToken)
   at Microsoft.EntityFrameworkCore.Storage.RelationalCommand.ExecuteReaderAsync(RelationalCommandParameterObject parameterObject, CancellationToken cancellationToken)
   at Microsoft.EntityFrameworkCore.Update.ReaderModificationCommandBatch.ExecuteAsync(IRelationalConnection connection, CancellationToken cancellationToken)
ClientConnectionId:d18493e9-2b51-4b97-9aa8-eaf56f2c9224
Error Number:547,State:0,Class:16
   --- End of inner exception stack trace ---
   at Microsoft.EntityFrameworkCore.Update.ReaderModificationCommandBatch.ExecuteAsync(IRelationalConnection connection, CancellationToken cancellationToken)
   at Microsoft.EntityFrameworkCore.Update.Internal.BatchExecutor.ExecuteAsync(IEnumerable`1 commandBatches, IRelationalConnection connection, CancellationToken cancellationToken)
   at Microsoft.EntityFrameworkCore.Update.Internal.BatchExecutor.ExecuteAsync(IEnumerable`1 commandBatches, IRelationalConnection connection, CancellationToken cancellationToken)
   at Microsoft.EntityFrameworkCore.ChangeTracking.Internal.StateManager.SaveChangesAsync(IList`1 entriesToSave, CancellationToken cancellationToken)
   at Microsoft.EntityFrameworkCore.ChangeTracking.Internal.StateManager.SaveChangesAsync(DbContext _, Boolean acceptAllChangesOnSuccess, CancellationToken cancellationToken)
   at Microsoft.EntityFrameworkCore.SqlServer.Storage.Internal.SqlServerExecutionStrategy.ExecuteAsync[TState,TResult](TState state, Func`4 operation, Func`4 verifySucceeded, CancellationToken cancellationToken)
   at Microsoft.EntityFrameworkCore.DbContext.SaveChangesAsync(Boolean acceptAllChangesOnSuccess, CancellationToken cancellationToken)
   at TTL_API.DbContext.Common.GenericDbContext`1.SaveChangesAsync() in E:\01.Srouce\13.TTL\02.Srouce-api\srouce-api-ttl\TTL_API.DbContext\Common\GenericDbContext.cs:line 39
   at TTL_API.Services.Implements.CustomerService.AddAsync(CustomerModel customerModel) in E:\01.Srouce\13.TTL\02.Srouce-api\srouce-api-ttl\TTL_API.Services\Implements\CRM\CustomerService.cs:line 274
   at TTL_API.WebApi.Controllers.CRM.CustomerController.Add(CustomerModel customerModel) in E:\01.Srouce\13.TTL\02.Srouce-api\srouce-api-ttl\TTL_API.WebApi\Controllers\CRM\CustomerController.cs:line 216
2023-05-25 14:52:15.271 +07:00 [Warning] SlackWebHooks setting is empty, please check config
2023-05-25 14:52:50.730 +07:00 [Information] Info at , msg: AddCustomer --> resInfo: {
  "Ref_Phone": null,
  "DistrictName": null,
  "ProvinceName": null,
  "GenderName": null,
  "CustomerStatusName": null,
  "CustomerTypeName": null,
  "OrganizationName": null,
  "ContactList": null,
  "Id": 0,
  "Code": "KH000180",
  "FullName": "AA",
  "Birthday": "19/05/2023",
  "GenderId": 1,
  "Phone": "0373458977",
  "Email": "a@gmail.com",
  "Tel": null,
  "Address": "string",
  "DistrictId": 0,
  "ProvinceId": 0,
  "IsCompany": false,
  "CompanyName": null,
  "ParentName": null,
  "ParentPhone": null,
  "ParentEmail": null,
  "CustomerTypeId": 0,
  "CustomerStatusId": 0,
  "OrganizationId": 68,
  "AccountId": 0,
  "Ref_Id": 0,
  "Ref_Code": null,
  "Ref_Name": null,
  "Ref_Source": "DIGITALSALES",
  "Note": null,
  "Identitycard": null,
  "Bank": null,
  "BankBranch": null,
  "BankAccountName": null,
  "BankAccount": null,
  "CityBank": null,
  "CreateBy": 85,
  "CreateOn": "2023-05-25T00:00:00+07:00",
  "ModifiedBy": null,
  "ModifiedOn": null,
  "IsDelete": false
}
2023-05-25 14:52:51.927 +07:00 [Error] Failed executing DbCommand ("23"ms) [Parameters=["@p0='?' (DbType = Int32), @p1='?' (Size = 4000), @p2='?' (Size = 4000), @p3='?' (Size = 4000), @p4='?' (Size = 4000), @p5='?' (Size = 4000), @p6='?' (Size = 4000), @p7='?' (Size = 4000), @p8='?' (Size = 4000), @p9='?' (Size = 4000), @p10='?' (DbType = Int32), @p11='?' (DbType = DateTime2), @p12='?' (DbType = Int32), @p13='?' (DbType = Int32), @p14='?' (DbType = Int32), @p15='?' (Size = 4000), @p16='?' (Size = 4000), @p17='?' (DbType = Int32), @p18='?' (Size = 4000), @p19='?' (DbType = Boolean), @p20='?' (DbType = Boolean), @p21='?' (DbType = Int32), @p22='?' (DbType = DateTime2), @p23='?' (Size = 4000), @p24='?' (DbType = Int32), @p25='?' (Size = 4000), @p26='?' (Size = 4000), @p27='?' (Size = 4000), @p28='?' (Size = 4000), @p29='?' (DbType = Int32), @p30='?' (Size = 4000), @p31='?' (DbType = Int32), @p32='?' (Size = 4000), @p33='?' (Size = 4000), @p34='?' (Size = 4000)"], CommandType='Text', CommandTimeout='180']"
""SET NOCOUNT ON;
INSERT INTO [Customer] ([AccountId], [Address], [Bank], [BankAccount], [BankAccountName], [BankBranch], [Birthday], [CityBank], [Code], [CompanyName], [CreateBy], [CreateOn], [CustomerStatusId], [CustomerTypeId], [DistrictId], [Email], [FullName], [GenderId], [Identitycard], [IsCompany], [IsDelete], [ModifiedBy], [ModifiedOn], [Note], [OrganizationId], [ParentEmail], [ParentName], [ParentPhone], [Phone], [ProvinceId], [Ref_Code], [Ref_Id], [Ref_Name], [Ref_Source], [Tel])
VALUES (@p0, @p1, @p2, @p3, @p4, @p5, @p6, @p7, @p8, @p9, @p10, @p11, @p12, @p13, @p14, @p15, @p16, @p17, @p18, @p19, @p20, @p21, @p22, @p23, @p24, @p25, @p26, @p27, @p28, @p29, @p30, @p31, @p32, @p33, @p34);
SELECT [Id]
FROM [Customer]
WHERE @@ROWCOUNT = 1 AND [Id] = scope_identity();"
2023-05-25 14:52:51.952 +07:00 [Error] An exception occurred in the database while saving changes for context type '"TTL_API.DbContext.Models.TTL_APIContext"'."
""Microsoft.EntityFrameworkCore.DbUpdateException: An error occurred while updating the entries. See the inner exception for details.
 ---> Microsoft.Data.SqlClient.SqlException (0x80131904): The INSERT statement conflicted with the FOREIGN KEY constraint \"FK_Customer_CustomerStatus\". The conflict occurred in database \"DB_ERP_NEW\", table \"dbo.CustomerStatus\", column 'Id'.
The statement has been terminated.
   at Microsoft.Data.SqlClient.SqlCommand.<>c.<ExecuteDbDataReaderAsync>b__164_0(Task`1 result)
   at System.Threading.Tasks.ContinuationResultTaskFromResultTask`2.InnerInvoke()
   at System.Threading.Tasks.Task.<>c.<.cctor>b__274_0(Object obj)
   at System.Threading.ExecutionContext.RunInternal(ExecutionContext executionContext, ContextCallback callback, Object state)
--- End of stack trace from previous location where exception was thrown ---
   at System.Threading.ExecutionContext.RunInternal(ExecutionContext executionContext, ContextCallback callback, Object state)
   at System.Threading.Tasks.Task.ExecuteWithThreadLocal(Task& currentTaskSlot, Thread threadPoolThread)
--- End of stack trace from previous location where exception was thrown ---
   at Microsoft.EntityFrameworkCore.Storage.RelationalCommand.ExecuteReaderAsync(RelationalCommandParameterObject parameterObject, CancellationToken cancellationToken)
   at Microsoft.EntityFrameworkCore.Storage.RelationalCommand.ExecuteReaderAsync(RelationalCommandParameterObject parameterObject, CancellationToken cancellationToken)
   at Microsoft.EntityFrameworkCore.Storage.RelationalCommand.ExecuteReaderAsync(RelationalCommandParameterObject parameterObject, CancellationToken cancellationToken)
   at Microsoft.EntityFrameworkCore.Update.ReaderModificationCommandBatch.ExecuteAsync(IRelationalConnection connection, CancellationToken cancellationToken)
ClientConnectionId:d18493e9-2b51-4b97-9aa8-eaf56f2c9224
Error Number:547,State:0,Class:16
   --- End of inner exception stack trace ---
   at Microsoft.EntityFrameworkCore.Update.ReaderModificationCommandBatch.ExecuteAsync(IRelationalConnection connection, CancellationToken cancellationToken)
   at Microsoft.EntityFrameworkCore.Update.Internal.BatchExecutor.ExecuteAsync(IEnumerable`1 commandBatches, IRelationalConnection connection, CancellationToken cancellationToken)
   at Microsoft.EntityFrameworkCore.Update.Internal.BatchExecutor.ExecuteAsync(IEnumerable`1 commandBatches, IRelationalConnection connection, CancellationToken cancellationToken)
   at Microsoft.EntityFrameworkCore.ChangeTracking.Internal.StateManager.SaveChangesAsync(IList`1 entriesToSave, CancellationToken cancellationToken)
   at Microsoft.EntityFrameworkCore.ChangeTracking.Internal.StateManager.SaveChangesAsync(DbContext _, Boolean acceptAllChangesOnSuccess, CancellationToken cancellationToken)
   at Microsoft.EntityFrameworkCore.SqlServer.Storage.Internal.SqlServerExecutionStrategy.ExecuteAsync[TState,TResult](TState state, Func`4 operation, Func`4 verifySucceeded, CancellationToken cancellationToken)
   at Microsoft.EntityFrameworkCore.DbContext.SaveChangesAsync(Boolean acceptAllChangesOnSuccess, CancellationToken cancellationToken)"
Microsoft.EntityFrameworkCore.DbUpdateException: An error occurred while updating the entries. See the inner exception for details.
 ---> Microsoft.Data.SqlClient.SqlException (0x80131904): The INSERT statement conflicted with the FOREIGN KEY constraint "FK_Customer_CustomerStatus". The conflict occurred in database "DB_ERP_NEW", table "dbo.CustomerStatus", column 'Id'.
The statement has been terminated.
   at Microsoft.Data.SqlClient.SqlCommand.<>c.<ExecuteDbDataReaderAsync>b__164_0(Task`1 result)
   at System.Threading.Tasks.ContinuationResultTaskFromResultTask`2.InnerInvoke()
   at System.Threading.Tasks.Task.<>c.<.cctor>b__274_0(Object obj)
   at System.Threading.ExecutionContext.RunInternal(ExecutionContext executionContext, ContextCallback callback, Object state)
--- End of stack trace from previous location where exception was thrown ---
   at System.Threading.ExecutionContext.RunInternal(ExecutionContext executionContext, ContextCallback callback, Object state)
   at System.Threading.Tasks.Task.ExecuteWithThreadLocal(Task& currentTaskSlot, Thread threadPoolThread)
--- End of stack trace from previous location where exception was thrown ---
   at Microsoft.EntityFrameworkCore.Storage.RelationalCommand.ExecuteReaderAsync(RelationalCommandParameterObject parameterObject, CancellationToken cancellationToken)
   at Microsoft.EntityFrameworkCore.Storage.RelationalCommand.ExecuteReaderAsync(RelationalCommandParameterObject parameterObject, CancellationToken cancellationToken)
   at Microsoft.EntityFrameworkCore.Storage.RelationalCommand.ExecuteReaderAsync(RelationalCommandParameterObject parameterObject, CancellationToken cancellationToken)
   at Microsoft.EntityFrameworkCore.Update.ReaderModificationCommandBatch.ExecuteAsync(IRelationalConnection connection, CancellationToken cancellationToken)
ClientConnectionId:d18493e9-2b51-4b97-9aa8-eaf56f2c9224
Error Number:547,State:0,Class:16
   --- End of inner exception stack trace ---
   at Microsoft.EntityFrameworkCore.Update.ReaderModificationCommandBatch.ExecuteAsync(IRelationalConnection connection, CancellationToken cancellationToken)
   at Microsoft.EntityFrameworkCore.Update.Internal.BatchExecutor.ExecuteAsync(IEnumerable`1 commandBatches, IRelationalConnection connection, CancellationToken cancellationToken)
   at Microsoft.EntityFrameworkCore.Update.Internal.BatchExecutor.ExecuteAsync(IEnumerable`1 commandBatches, IRelationalConnection connection, CancellationToken cancellationToken)
   at Microsoft.EntityFrameworkCore.ChangeTracking.Internal.StateManager.SaveChangesAsync(IList`1 entriesToSave, CancellationToken cancellationToken)
   at Microsoft.EntityFrameworkCore.ChangeTracking.Internal.StateManager.SaveChangesAsync(DbContext _, Boolean acceptAllChangesOnSuccess, CancellationToken cancellationToken)
   at Microsoft.EntityFrameworkCore.SqlServer.Storage.Internal.SqlServerExecutionStrategy.ExecuteAsync[TState,TResult](TState state, Func`4 operation, Func`4 verifySucceeded, CancellationToken cancellationToken)
   at Microsoft.EntityFrameworkCore.DbContext.SaveChangesAsync(Boolean acceptAllChangesOnSuccess, CancellationToken cancellationToken)
2023-05-25 14:52:52.134 +07:00 [Error] Error at /api/vi-VN/Customer/Add, msg: An error occurred while updating the entries. See the inner exception for details.
Microsoft.EntityFrameworkCore.DbUpdateException: An error occurred while updating the entries. See the inner exception for details.
 ---> Microsoft.Data.SqlClient.SqlException (0x80131904): The INSERT statement conflicted with the FOREIGN KEY constraint "FK_Customer_CustomerStatus". The conflict occurred in database "DB_ERP_NEW", table "dbo.CustomerStatus", column 'Id'.
The statement has been terminated.
   at Microsoft.Data.SqlClient.SqlCommand.<>c.<ExecuteDbDataReaderAsync>b__164_0(Task`1 result)
   at System.Threading.Tasks.ContinuationResultTaskFromResultTask`2.InnerInvoke()
   at System.Threading.Tasks.Task.<>c.<.cctor>b__274_0(Object obj)
   at System.Threading.ExecutionContext.RunInternal(ExecutionContext executionContext, ContextCallback callback, Object state)
--- End of stack trace from previous location where exception was thrown ---
   at System.Threading.ExecutionContext.RunInternal(ExecutionContext executionContext, ContextCallback callback, Object state)
   at System.Threading.Tasks.Task.ExecuteWithThreadLocal(Task& currentTaskSlot, Thread threadPoolThread)
--- End of stack trace from previous location where exception was thrown ---
   at Microsoft.EntityFrameworkCore.Storage.RelationalCommand.ExecuteReaderAsync(RelationalCommandParameterObject parameterObject, CancellationToken cancellationToken)
   at Microsoft.EntityFrameworkCore.Storage.RelationalCommand.ExecuteReaderAsync(RelationalCommandParameterObject parameterObject, CancellationToken cancellationToken)
   at Microsoft.EntityFrameworkCore.Storage.RelationalCommand.ExecuteReaderAsync(RelationalCommandParameterObject parameterObject, CancellationToken cancellationToken)
   at Microsoft.EntityFrameworkCore.Update.ReaderModificationCommandBatch.ExecuteAsync(IRelationalConnection connection, CancellationToken cancellationToken)
ClientConnectionId:d18493e9-2b51-4b97-9aa8-eaf56f2c9224
Error Number:547,State:0,Class:16
   --- End of inner exception stack trace ---
   at Microsoft.EntityFrameworkCore.Update.ReaderModificationCommandBatch.ExecuteAsync(IRelationalConnection connection, CancellationToken cancellationToken)
   at Microsoft.EntityFrameworkCore.Update.Internal.BatchExecutor.ExecuteAsync(IEnumerable`1 commandBatches, IRelationalConnection connection, CancellationToken cancellationToken)
   at Microsoft.EntityFrameworkCore.Update.Internal.BatchExecutor.ExecuteAsync(IEnumerable`1 commandBatches, IRelationalConnection connection, CancellationToken cancellationToken)
   at Microsoft.EntityFrameworkCore.ChangeTracking.Internal.StateManager.SaveChangesAsync(IList`1 entriesToSave, CancellationToken cancellationToken)
   at Microsoft.EntityFrameworkCore.ChangeTracking.Internal.StateManager.SaveChangesAsync(DbContext _, Boolean acceptAllChangesOnSuccess, CancellationToken cancellationToken)
   at Microsoft.EntityFrameworkCore.SqlServer.Storage.Internal.SqlServerExecutionStrategy.ExecuteAsync[TState,TResult](TState state, Func`4 operation, Func`4 verifySucceeded, CancellationToken cancellationToken)
   at Microsoft.EntityFrameworkCore.DbContext.SaveChangesAsync(Boolean acceptAllChangesOnSuccess, CancellationToken cancellationToken)
   at TTL_API.DbContext.Common.GenericDbContext`1.SaveChangesAsync() in E:\01.Srouce\13.TTL\02.Srouce-api\srouce-api-ttl\TTL_API.DbContext\Common\GenericDbContext.cs:line 39
   at TTL_API.Services.Implements.CustomerService.AddAsync(CustomerModel customerModel) in E:\01.Srouce\13.TTL\02.Srouce-api\srouce-api-ttl\TTL_API.Services\Implements\CRM\CustomerService.cs:line 274
   at TTL_API.WebApi.Controllers.CRM.CustomerController.Add(CustomerModel customerModel) in E:\01.Srouce\13.TTL\02.Srouce-api\srouce-api-ttl\TTL_API.WebApi\Controllers\CRM\CustomerController.cs:line 216
2023-05-25 14:52:52.136 +07:00 [Warning] SlackWebHooks setting is empty, please check config
2023-05-25 14:53:01.136 +07:00 [Information] Info at , msg: AddCustomer --> resInfo: {
  "Ref_Phone": null,
  "DistrictName": null,
  "ProvinceName": null,
  "GenderName": null,
  "CustomerStatusName": null,
  "CustomerTypeName": null,
  "OrganizationName": null,
  "ContactList": null,
  "Id": 0,
  "Code": "KH000180",
  "FullName": "AA",
  "Birthday": "19/05/2023",
  "GenderId": 1,
  "Phone": "0373458977",
  "Email": "a@gmail.com",
  "Tel": null,
  "Address": "string",
  "DistrictId": 0,
  "ProvinceId": 0,
  "IsCompany": false,
  "CompanyName": null,
  "ParentName": null,
  "ParentPhone": null,
  "ParentEmail": null,
  "CustomerTypeId": 0,
  "CustomerStatusId": 0,
  "OrganizationId": 68,
  "AccountId": 0,
  "Ref_Id": 0,
  "Ref_Code": null,
  "Ref_Name": null,
  "Ref_Source": "DIGITALSALES",
  "Note": null,
  "Identitycard": null,
  "Bank": null,
  "BankBranch": null,
  "BankAccountName": null,
  "BankAccount": null,
  "CityBank": null,
  "CreateBy": 85,
  "CreateOn": "2023-05-25T00:00:00+07:00",
  "ModifiedBy": null,
  "ModifiedOn": null,
  "IsDelete": false
}
2023-05-25 14:53:01.179 +07:00 [Error] Failed executing DbCommand ("21"ms) [Parameters=["@p0='?' (DbType = Int32), @p1='?' (Size = 4000), @p2='?' (Size = 4000), @p3='?' (Size = 4000), @p4='?' (Size = 4000), @p5='?' (Size = 4000), @p6='?' (Size = 4000), @p7='?' (Size = 4000), @p8='?' (Size = 4000), @p9='?' (Size = 4000), @p10='?' (DbType = Int32), @p11='?' (DbType = DateTime2), @p12='?' (DbType = Int32), @p13='?' (DbType = Int32), @p14='?' (DbType = Int32), @p15='?' (Size = 4000), @p16='?' (Size = 4000), @p17='?' (DbType = Int32), @p18='?' (Size = 4000), @p19='?' (DbType = Boolean), @p20='?' (DbType = Boolean), @p21='?' (DbType = Int32), @p22='?' (DbType = DateTime2), @p23='?' (Size = 4000), @p24='?' (DbType = Int32), @p25='?' (Size = 4000), @p26='?' (Size = 4000), @p27='?' (Size = 4000), @p28='?' (Size = 4000), @p29='?' (DbType = Int32), @p30='?' (Size = 4000), @p31='?' (DbType = Int32), @p32='?' (Size = 4000), @p33='?' (Size = 4000), @p34='?' (Size = 4000)"], CommandType='Text', CommandTimeout='180']"
""SET NOCOUNT ON;
INSERT INTO [Customer] ([AccountId], [Address], [Bank], [BankAccount], [BankAccountName], [BankBranch], [Birthday], [CityBank], [Code], [CompanyName], [CreateBy], [CreateOn], [CustomerStatusId], [CustomerTypeId], [DistrictId], [Email], [FullName], [GenderId], [Identitycard], [IsCompany], [IsDelete], [ModifiedBy], [ModifiedOn], [Note], [OrganizationId], [ParentEmail], [ParentName], [ParentPhone], [Phone], [ProvinceId], [Ref_Code], [Ref_Id], [Ref_Name], [Ref_Source], [Tel])
VALUES (@p0, @p1, @p2, @p3, @p4, @p5, @p6, @p7, @p8, @p9, @p10, @p11, @p12, @p13, @p14, @p15, @p16, @p17, @p18, @p19, @p20, @p21, @p22, @p23, @p24, @p25, @p26, @p27, @p28, @p29, @p30, @p31, @p32, @p33, @p34);
SELECT [Id]
FROM [Customer]
WHERE @@ROWCOUNT = 1 AND [Id] = scope_identity();"
2023-05-25 14:53:01.206 +07:00 [Error] An exception occurred in the database while saving changes for context type '"TTL_API.DbContext.Models.TTL_APIContext"'."
""Microsoft.EntityFrameworkCore.DbUpdateException: An error occurred while updating the entries. See the inner exception for details.
 ---> Microsoft.Data.SqlClient.SqlException (0x80131904): The INSERT statement conflicted with the FOREIGN KEY constraint \"FK_Customer_CustomerStatus\". The conflict occurred in database \"DB_ERP_NEW\", table \"dbo.CustomerStatus\", column 'Id'.
The statement has been terminated.
   at Microsoft.Data.SqlClient.SqlCommand.<>c.<ExecuteDbDataReaderAsync>b__164_0(Task`1 result)
   at System.Threading.Tasks.ContinuationResultTaskFromResultTask`2.InnerInvoke()
   at System.Threading.Tasks.Task.<>c.<.cctor>b__274_0(Object obj)
   at System.Threading.ExecutionContext.RunInternal(ExecutionContext executionContext, ContextCallback callback, Object state)
--- End of stack trace from previous location where exception was thrown ---
   at System.Threading.ExecutionContext.RunInternal(ExecutionContext executionContext, ContextCallback callback, Object state)
   at System.Threading.Tasks.Task.ExecuteWithThreadLocal(Task& currentTaskSlot, Thread threadPoolThread)
--- End of stack trace from previous location where exception was thrown ---
   at Microsoft.EntityFrameworkCore.Storage.RelationalCommand.ExecuteReaderAsync(RelationalCommandParameterObject parameterObject, CancellationToken cancellationToken)
   at Microsoft.EntityFrameworkCore.Storage.RelationalCommand.ExecuteReaderAsync(RelationalCommandParameterObject parameterObject, CancellationToken cancellationToken)
   at Microsoft.EntityFrameworkCore.Storage.RelationalCommand.ExecuteReaderAsync(RelationalCommandParameterObject parameterObject, CancellationToken cancellationToken)
   at Microsoft.EntityFrameworkCore.Update.ReaderModificationCommandBatch.ExecuteAsync(IRelationalConnection connection, CancellationToken cancellationToken)
ClientConnectionId:d18493e9-2b51-4b97-9aa8-eaf56f2c9224
Error Number:547,State:0,Class:16
   --- End of inner exception stack trace ---
   at Microsoft.EntityFrameworkCore.Update.ReaderModificationCommandBatch.ExecuteAsync(IRelationalConnection connection, CancellationToken cancellationToken)
   at Microsoft.EntityFrameworkCore.Update.Internal.BatchExecutor.ExecuteAsync(IEnumerable`1 commandBatches, IRelationalConnection connection, CancellationToken cancellationToken)
   at Microsoft.EntityFrameworkCore.Update.Internal.BatchExecutor.ExecuteAsync(IEnumerable`1 commandBatches, IRelationalConnection connection, CancellationToken cancellationToken)
   at Microsoft.EntityFrameworkCore.ChangeTracking.Internal.StateManager.SaveChangesAsync(IList`1 entriesToSave, CancellationToken cancellationToken)
   at Microsoft.EntityFrameworkCore.ChangeTracking.Internal.StateManager.SaveChangesAsync(DbContext _, Boolean acceptAllChangesOnSuccess, CancellationToken cancellationToken)
   at Microsoft.EntityFrameworkCore.SqlServer.Storage.Internal.SqlServerExecutionStrategy.ExecuteAsync[TState,TResult](TState state, Func`4 operation, Func`4 verifySucceeded, CancellationToken cancellationToken)
   at Microsoft.EntityFrameworkCore.DbContext.SaveChangesAsync(Boolean acceptAllChangesOnSuccess, CancellationToken cancellationToken)"
Microsoft.EntityFrameworkCore.DbUpdateException: An error occurred while updating the entries. See the inner exception for details.
 ---> Microsoft.Data.SqlClient.SqlException (0x80131904): The INSERT statement conflicted with the FOREIGN KEY constraint "FK_Customer_CustomerStatus". The conflict occurred in database "DB_ERP_NEW", table "dbo.CustomerStatus", column 'Id'.
The statement has been terminated.
   at Microsoft.Data.SqlClient.SqlCommand.<>c.<ExecuteDbDataReaderAsync>b__164_0(Task`1 result)
   at System.Threading.Tasks.ContinuationResultTaskFromResultTask`2.InnerInvoke()
   at System.Threading.Tasks.Task.<>c.<.cctor>b__274_0(Object obj)
   at System.Threading.ExecutionContext.RunInternal(ExecutionContext executionContext, ContextCallback callback, Object state)
--- End of stack trace from previous location where exception was thrown ---
   at System.Threading.ExecutionContext.RunInternal(ExecutionContext executionContext, ContextCallback callback, Object state)
   at System.Threading.Tasks.Task.ExecuteWithThreadLocal(Task& currentTaskSlot, Thread threadPoolThread)
--- End of stack trace from previous location where exception was thrown ---
   at Microsoft.EntityFrameworkCore.Storage.RelationalCommand.ExecuteReaderAsync(RelationalCommandParameterObject parameterObject, CancellationToken cancellationToken)
   at Microsoft.EntityFrameworkCore.Storage.RelationalCommand.ExecuteReaderAsync(RelationalCommandParameterObject parameterObject, CancellationToken cancellationToken)
   at Microsoft.EntityFrameworkCore.Storage.RelationalCommand.ExecuteReaderAsync(RelationalCommandParameterObject parameterObject, CancellationToken cancellationToken)
   at Microsoft.EntityFrameworkCore.Update.ReaderModificationCommandBatch.ExecuteAsync(IRelationalConnection connection, CancellationToken cancellationToken)
ClientConnectionId:d18493e9-2b51-4b97-9aa8-eaf56f2c9224
Error Number:547,State:0,Class:16
   --- End of inner exception stack trace ---
   at Microsoft.EntityFrameworkCore.Update.ReaderModificationCommandBatch.ExecuteAsync(IRelationalConnection connection, CancellationToken cancellationToken)
   at Microsoft.EntityFrameworkCore.Update.Internal.BatchExecutor.ExecuteAsync(IEnumerable`1 commandBatches, IRelationalConnection connection, CancellationToken cancellationToken)
   at Microsoft.EntityFrameworkCore.Update.Internal.BatchExecutor.ExecuteAsync(IEnumerable`1 commandBatches, IRelationalConnection connection, CancellationToken cancellationToken)
   at Microsoft.EntityFrameworkCore.ChangeTracking.Internal.StateManager.SaveChangesAsync(IList`1 entriesToSave, CancellationToken cancellationToken)
   at Microsoft.EntityFrameworkCore.ChangeTracking.Internal.StateManager.SaveChangesAsync(DbContext _, Boolean acceptAllChangesOnSuccess, CancellationToken cancellationToken)
   at Microsoft.EntityFrameworkCore.SqlServer.Storage.Internal.SqlServerExecutionStrategy.ExecuteAsync[TState,TResult](TState state, Func`4 operation, Func`4 verifySucceeded, CancellationToken cancellationToken)
   at Microsoft.EntityFrameworkCore.DbContext.SaveChangesAsync(Boolean acceptAllChangesOnSuccess, CancellationToken cancellationToken)
2023-05-25 14:53:35.582 +07:00 [Error] Error at /api/vi-VN/Customer/Add, msg: An error occurred while updating the entries. See the inner exception for details.
Microsoft.EntityFrameworkCore.DbUpdateException: An error occurred while updating the entries. See the inner exception for details.
 ---> Microsoft.Data.SqlClient.SqlException (0x80131904): The INSERT statement conflicted with the FOREIGN KEY constraint "FK_Customer_CustomerStatus". The conflict occurred in database "DB_ERP_NEW", table "dbo.CustomerStatus", column 'Id'.
The statement has been terminated.
   at Microsoft.Data.SqlClient.SqlCommand.<>c.<ExecuteDbDataReaderAsync>b__164_0(Task`1 result)
   at System.Threading.Tasks.ContinuationResultTaskFromResultTask`2.InnerInvoke()
   at System.Threading.Tasks.Task.<>c.<.cctor>b__274_0(Object obj)
   at System.Threading.ExecutionContext.RunInternal(ExecutionContext executionContext, ContextCallback callback, Object state)
--- End of stack trace from previous location where exception was thrown ---
   at System.Threading.ExecutionContext.RunInternal(ExecutionContext executionContext, ContextCallback callback, Object state)
   at System.Threading.Tasks.Task.ExecuteWithThreadLocal(Task& currentTaskSlot, Thread threadPoolThread)
--- End of stack trace from previous location where exception was thrown ---
   at Microsoft.EntityFrameworkCore.Storage.RelationalCommand.ExecuteReaderAsync(RelationalCommandParameterObject parameterObject, CancellationToken cancellationToken)
   at Microsoft.EntityFrameworkCore.Storage.RelationalCommand.ExecuteReaderAsync(RelationalCommandParameterObject parameterObject, CancellationToken cancellationToken)
   at Microsoft.EntityFrameworkCore.Storage.RelationalCommand.ExecuteReaderAsync(RelationalCommandParameterObject parameterObject, CancellationToken cancellationToken)
   at Microsoft.EntityFrameworkCore.Update.ReaderModificationCommandBatch.ExecuteAsync(IRelationalConnection connection, CancellationToken cancellationToken)
ClientConnectionId:d18493e9-2b51-4b97-9aa8-eaf56f2c9224
Error Number:547,State:0,Class:16
   --- End of inner exception stack trace ---
   at Microsoft.EntityFrameworkCore.Update.ReaderModificationCommandBatch.ExecuteAsync(IRelationalConnection connection, CancellationToken cancellationToken)
   at Microsoft.EntityFrameworkCore.Update.Internal.BatchExecutor.ExecuteAsync(IEnumerable`1 commandBatches, IRelationalConnection connection, CancellationToken cancellationToken)
   at Microsoft.EntityFrameworkCore.Update.Internal.BatchExecutor.ExecuteAsync(IEnumerable`1 commandBatches, IRelationalConnection connection, CancellationToken cancellationToken)
   at Microsoft.EntityFrameworkCore.ChangeTracking.Internal.StateManager.SaveChangesAsync(IList`1 entriesToSave, CancellationToken cancellationToken)
   at Microsoft.EntityFrameworkCore.ChangeTracking.Internal.StateManager.SaveChangesAsync(DbContext _, Boolean acceptAllChangesOnSuccess, CancellationToken cancellationToken)
   at Microsoft.EntityFrameworkCore.SqlServer.Storage.Internal.SqlServerExecutionStrategy.ExecuteAsync[TState,TResult](TState state, Func`4 operation, Func`4 verifySucceeded, CancellationToken cancellationToken)
   at Microsoft.EntityFrameworkCore.DbContext.SaveChangesAsync(Boolean acceptAllChangesOnSuccess, CancellationToken cancellationToken)
   at TTL_API.DbContext.Common.GenericDbContext`1.SaveChangesAsync() in E:\01.Srouce\13.TTL\02.Srouce-api\srouce-api-ttl\TTL_API.DbContext\Common\GenericDbContext.cs:line 39
   at TTL_API.Services.Implements.CustomerService.AddAsync(CustomerModel customerModel) in E:\01.Srouce\13.TTL\02.Srouce-api\srouce-api-ttl\TTL_API.Services\Implements\CRM\CustomerService.cs:line 274
   at TTL_API.WebApi.Controllers.CRM.CustomerController.Add(CustomerModel customerModel) in E:\01.Srouce\13.TTL\02.Srouce-api\srouce-api-ttl\TTL_API.WebApi\Controllers\CRM\CustomerController.cs:line 216
2023-05-25 14:53:35.585 +07:00 [Warning] SlackWebHooks setting is empty, please check config
2023-05-25 14:54:16.702 +07:00 [Information] Info at , msg: AddCustomer --> resInfo: {
  "Ref_Phone": null,
  "DistrictName": null,
  "ProvinceName": null,
  "GenderName": null,
  "CustomerStatusName": null,
  "CustomerTypeName": null,
  "OrganizationName": null,
  "ContactList": null,
  "Id": 0,
  "Code": "KH000180",
  "FullName": "AA",
  "Birthday": "19/05/2023",
  "GenderId": 1,
  "Phone": "0373458977",
  "Email": "a@gmail.com",
  "Tel": null,
  "Address": "string",
  "DistrictId": 0,
  "ProvinceId": 0,
  "IsCompany": false,
  "CompanyName": null,
  "ParentName": null,
  "ParentPhone": null,
  "ParentEmail": null,
  "CustomerTypeId": 1,
  "CustomerStatusId": 1,
  "OrganizationId": 68,
  "AccountId": 0,
  "Ref_Id": 0,
  "Ref_Code": null,
  "Ref_Name": null,
  "Ref_Source": "DIGITALSALES",
  "Note": null,
  "Identitycard": null,
  "Bank": null,
  "BankBranch": null,
  "BankAccountName": null,
  "BankAccount": null,
  "CityBank": null,
  "CreateBy": 85,
  "CreateOn": "2023-05-25T00:00:00+07:00",
  "ModifiedBy": null,
  "ModifiedOn": null,
  "IsDelete": false
}
2023-05-25 14:54:16.840 +07:00 [Information] Info at , msg: AddContact --> resInfo: [
  {
    "Id": 0,
    "CustomerId": 207,
    "Phone": "0373458977",
    "Email": "a@gmail.com",
    "Description": null,
    "Status": true,
    "IsKey": true,
    "CreateBy": 81,
    "CreateOn": "2023-05-25T14:54:16.8103566+07:00",
    "ModifiedBy": null,
    "ModifiedOn": null,
    "IsDelete": false
  }
]
